"ImageNumber_Type"	"Sum(AreaShape_Area)"	"Sum(AreaShape_Area (#1))"	"First(Metadata_Well)"	"First(Metadata_ChannelNumber)"	"First*(Metadata_Frame)"	"First*(Metadata_Plane)"	"First*(Metadata_Series)"	"First*(Metadata_Site)"	"First*(Metadata_Time)"	"First*(Metadata_WellColumn)"	"First*(Metadata_WellRow)"	"First(Type)"	"First*(OA)"	"First(Protein)"	"LD_Area_by_Cell_Area"
"_10__With\_Prot_"	3765330	31260	"B02"	"nan"	0	8	0	10	1	2	2	"With_Prot"	0	"pUbiP-CG32803-RA-eGFP"	0.00830206117392101
"_10__Without\_Prot_"	14179270	171091	"B02"	"nan"	0	8	0	10	1	2	2	"Without_Prot"	0	"pUbiP-CG32803-RA-eGFP"	0.012066277036829118
"_111__With\_Prot_"	10255780	152026	"C07"	"nan"	0	8	0	1	1	7	3	"With_Prot"	200	"pUbiP-eGFP-CG32803-RA"	0.014823445900750602
"_111__Without\_Prot_"	14994138	208438	"C07"	"nan"	0	8	0	1	1	7	3	"Without_Prot"	200	"pUbiP-eGFP-CG32803-RA"	0.01390129929443093
"_112__With\_Prot_"	14055712	173506	"C07"	"nan"	0	8	0	2	1	7	3	"With_Prot"	200	"pUbiP-eGFP-CG32803-RA"	0.012344162999355706
"_112__Without\_Prot_"	12841540	174760	"C07"	"nan"	0	8	0	2	1	7	3	"Without_Prot"	200	"pUbiP-eGFP-CG32803-RA"	0.013608959673061019
"_113__With\_Prot_"	16582062	181061	"C07"	"nan"	0	8	0	3	1	7	3	"With_Prot"	200	"pUbiP-eGFP-CG32803-RA"	0.010919088349808365
"_113__Without\_Prot_"	10910370	129429	"C07"	"nan"	0	8	0	3	1	7	3	"Without_Prot"	200	"pUbiP-eGFP-CG32803-RA"	0.011862934070980177
"_114__With\_Prot_"	9853932	178534	"C07"	"nan"	0	8	0	4	1	7	3	"With_Prot"	200	"pUbiP-eGFP-CG32803-RA"	0.018118046684308355
"_114__Without\_Prot_"	13360801	204314	"C07"	"nan"	0	8	0	4	1	7	3	"Without_Prot"	200	"pUbiP-eGFP-CG32803-RA"	0.015292047235790729
"_115__With\_Prot_"	2228047	32932	"C07"	"nan"	0	8	0	5	1	7	3	"With_Prot"	200	"pUbiP-eGFP-CG32803-RA"	0.014780657679124364
"_115__Without\_Prot_"	9803760	163284	"C07"	"nan"	0	8	0	5	1	7	3	"Without_Prot"	200	"pUbiP-eGFP-CG32803-RA"	0.016655242478396046
"_116__With\_Prot_"	1116353	19845	"C07"	"nan"	0	8	0	6	1	7	3	"With_Prot"	200	"pUbiP-eGFP-CG32803-RA"	0.017776635168266667
"_116__Without\_Prot_"	7040060	128028	"C07"	"nan"	0	8	0	6	1	7	3	"Without_Prot"	200	"pUbiP-eGFP-CG32803-RA"	0.018185640463291505
"_117__With\_Prot_"	992952	10878	"C07"	"nan"	0	8	0	7	1	7	3	"With_Prot"	200	"pUbiP-eGFP-CG32803-RA"	0.01095521233654799
"_117__Without\_Prot_"	3833878	67130	"C07"	"nan"	0	8	0	7	1	7	3	"Without_Prot"	200	"pUbiP-eGFP-CG32803-RA"	0.01750968601504795
"_118__With\_Prot_"	9567261	144133	"C07"	"nan"	0	8	0	8	1	7	3	"With_Prot"	200	"pUbiP-eGFP-CG32803-RA"	0.015065231313329907
"_118__Without\_Prot_"	10045830	164748	"C07"	"nan"	0	8	0	8	1	7	3	"Without_Prot"	200	"pUbiP-eGFP-CG32803-RA"	0.016399640447827605
"_119__With\_Prot_"	5573634	85723	"C07"	"nan"	0	8	0	9	1	7	3	"With_Prot"	200	"pUbiP-eGFP-CG32803-RA"	0.015380091337177862
"_119__Without\_Prot_"	12111905	210520	"C07"	"nan"	0	8	0	9	1	7	3	"Without_Prot"	200	"pUbiP-eGFP-CG32803-RA"	0.017381245972454374
"_11__With\_Prot_"	1891250	19672	"B03"	"nan"	0	8	0	1	1	3	2	"With_Prot"	0	"pUbiP-CG32803-RA-eGFP"	0.01040158625247852
"_11__Without\_Prot_"	10624695	134365	"B03"	"nan"	0	8	0	1	1	3	2	"Without_Prot"	0	"pUbiP-CG32803-RA-eGFP"	0.01264648067544527
"_120__With\_Prot_"	12295947	188463	"C07"	"nan"	0	8	0	10	1	7	3	"With_Prot"	200	"pUbiP-eGFP-CG32803-RA"	0.015327245636306013
"_120__Without\_Prot_"	15458052	257220	"C07"	"nan"	0	8	0	10	1	7	3	"Without_Prot"	200	"pUbiP-eGFP-CG32803-RA"	0.016639871569845928
"_121__With\_Prot_"	7986253	133591	"D02"	"nan"	0	8	0	1	1	2	4	"With_Prot"	400	"pUbiP-CG32803-RA-eGFP"	0.01672761932285391
"_121__Without\_Prot_"	17260314	296784	"D02"	"nan"	0	8	0	1	1	2	4	"Without_Prot"	400	"pUbiP-CG32803-RA-eGFP"	0.017194588696358596
"_122__With\_Prot_"	7766299	146579	"D02"	"nan"	0	8	0	2	1	2	4	"With_Prot"	400	"pUbiP-CG32803-RA-eGFP"	0.018873726082397808
"_122__Without\_Prot_"	14602458	256848	"D02"	"nan"	0	8	0	2	1	2	4	"Without_Prot"	400	"pUbiP-CG32803-RA-eGFP"	0.01758936748867896
"_123__With\_Prot_"	8593057	179736	"D02"	"nan"	0	8	0	3	1	2	4	"With_Prot"	400	"pUbiP-CG32803-RA-eGFP"	0.020916421245663796
"_123__Without\_Prot_"	15677017	283309	"D02"	"nan"	0	8	0	3	1	2	4	"Without_Prot"	400	"pUbiP-CG32803-RA-eGFP"	0.018071614006669765
"_124__With\_Prot_"	7183787	150938	"D02"	"nan"	0	8	0	4	1	2	4	"With_Prot"	400	"pUbiP-CG32803-RA-eGFP"	0.021010923625658724
"_124__Without\_Prot_"	14885552	261923	"D02"	"nan"	0	8	0	4	1	2	4	"Without_Prot"	400	"pUbiP-CG32803-RA-eGFP"	0.01759578684082391
"_125__With\_Prot_"	6365188	136875	"D02"	"nan"	0	8	0	5	1	2	4	"With_Prot"	400	"pUbiP-CG32803-RA-eGFP"	0.02150368535854715
"_125__Without\_Prot_"	15637245	304132	"D02"	"nan"	0	8	0	5	1	2	4	"Without_Prot"	400	"pUbiP-CG32803-RA-eGFP"	0.01944920604620571
"_126__With\_Prot_"	6637231	138835	"D02"	"nan"	0	8	0	6	1	2	4	"With_Prot"	400	"pUbiP-CG32803-RA-eGFP"	0.020917608562968502
"_126__Without\_Prot_"	14830805	285855	"D02"	"nan"	0	8	0	6	1	2	4	"Without_Prot"	400	"pUbiP-CG32803-RA-eGFP"	0.01927440890767561
"_127__With\_Prot_"	3620119	74449	"D02"	"nan"	0	8	0	7	1	2	4	"With_Prot"	400	"pUbiP-CG32803-RA-eGFP"	0.020565346056303675
"_127__Without\_Prot_"	13749958	248274	"D02"	"nan"	0	8	0	7	1	2	4	"Without_Prot"	400	"pUbiP-CG32803-RA-eGFP"	0.0180563460630207
"_128__With\_Prot_"	883583	17049	"D02"	"nan"	0	8	0	8	1	2	4	"With_Prot"	400	"pUbiP-CG32803-RA-eGFP"	0.01929530106396343
"_128__Without\_Prot_"	5132973	113698	"D02"	"nan"	0	8	0	8	1	2	4	"Without_Prot"	400	"pUbiP-CG32803-RA-eGFP"	0.02215051589010891
"_129__With\_Prot_"	2182524	38064	"D02"	"nan"	0	8	0	9	1	2	4	"With_Prot"	400	"pUbiP-CG32803-RA-eGFP"	0.01744035804417271
"_129__Without\_Prot_"	14567439	272253	"D02"	"nan"	0	8	0	9	1	2	4	"Without_Prot"	400	"pUbiP-CG32803-RA-eGFP"	0.018689146390110163
"_12__With\_Prot_"	5192051	52001	"B03"	"nan"	0	8	0	2	1	3	2	"With_Prot"	0	"pUbiP-CG32803-RA-eGFP"	0.010015502544177629
"_12__Without\_Prot_"	14687978	169716	"B03"	"nan"	0	8	0	2	1	3	2	"Without_Prot"	0	"pUbiP-CG32803-RA-eGFP"	0.011554755869051548
"_130__With\_Prot_"	5231120	120897	"D02"	"nan"	0	8	0	10	1	2	4	"With_Prot"	400	"pUbiP-CG32803-RA-eGFP"	0.023111111960727338
"_130__Without\_Prot_"	14758362	286975	"D02"	"nan"	0	8	0	10	1	2	4	"Without_Prot"	400	"pUbiP-CG32803-RA-eGFP"	0.01944490858809399
"_131__With\_Prot_"	5226285	95626	"D03"	"nan"	0	8	0	1	1	3	4	"With_Prot"	400	"pUbiP-CG32803-RA-eGFP"	0.018297126926679275
"_131__Without\_Prot_"	14622796	259205	"D03"	"nan"	0	8	0	1	1	3	4	"Without_Prot"	400	"pUbiP-CG32803-RA-eGFP"	0.017726090140353458
"_132__With\_Prot_"	8933664	146488	"D03"	"nan"	0	8	0	2	1	3	4	"With_Prot"	400	"pUbiP-CG32803-RA-eGFP"	0.016397303502795717
"_132__Without\_Prot_"	16433816	312149	"D03"	"nan"	0	8	0	2	1	3	4	"Without_Prot"	400	"pUbiP-CG32803-RA-eGFP"	0.0189943102685341
"_133__With\_Prot_"	12434188	222552	"D03"	"nan"	0	8	0	3	1	3	4	"With_Prot"	400	"pUbiP-CG32803-RA-eGFP"	0.017898394330212796
"_133__Without\_Prot_"	14847490	254998	"D03"	"nan"	0	8	0	3	1	3	4	"Without_Prot"	400	"pUbiP-CG32803-RA-eGFP"	0.017174485384398305
"_134__With\_Prot_"	6041291	119123	"D03"	"nan"	0	8	0	4	1	3	4	"With_Prot"	400	"pUbiP-CG32803-RA-eGFP"	0.019718136404950532
"_134__Without\_Prot_"	15694987	289785	"D03"	"nan"	0	8	0	4	1	3	4	"Without_Prot"	400	"pUbiP-CG32803-RA-eGFP"	0.01846353870825124
"_135__With\_Prot_"	2815566	51930	"D03"	"nan"	0	8	0	5	1	3	4	"With_Prot"	400	"pUbiP-CG32803-RA-eGFP"	0.018443893696684786
"_135__Without\_Prot_"	12652631	252587	"D03"	"nan"	0	8	0	5	1	3	4	"Without_Prot"	400	"pUbiP-CG32803-RA-eGFP"	0.0199631997487321
"_136__With\_Prot_"	2189314	40432	"D03"	"nan"	0	8	0	6	1	3	4	"With_Prot"	400	"pUbiP-CG32803-RA-eGFP"	0.018467885374140028
"_136__Without\_Prot_"	13540832	253540	"D03"	"nan"	0	8	0	6	1	3	4	"Without_Prot"	400	"pUbiP-CG32803-RA-eGFP"	0.018724107942554784
"_137__With\_Prot_"	1433654	27358	"D03"	"nan"	0	8	0	7	1	3	4	"With_Prot"	400	"pUbiP-CG32803-RA-eGFP"	0.019082707543103147
"_137__Without\_Prot_"	11443391	213018	"D03"	"nan"	0	8	0	7	1	3	4	"Without_Prot"	400	"pUbiP-CG32803-RA-eGFP"	0.01861493677879223
"_138__With\_Prot_"	8347426	155977	"D03"	"nan"	0	8	0	8	1	3	4	"With_Prot"	400	"pUbiP-CG32803-RA-eGFP"	0.018685640339908376
"_138__Without\_Prot_"	15822690	293157	"D03"	"nan"	0	8	0	8	1	3	4	"Without_Prot"	400	"pUbiP-CG32803-RA-eGFP"	0.018527633417579438
"_139__With\_Prot_"	6425981	139174	"D03"	"nan"	0	8	0	9	1	3	4	"With_Prot"	400	"pUbiP-CG32803-RA-eGFP"	0.021658016106801438
"_139__Without\_Prot_"	17293562	315193	"D03"	"nan"	0	8	0	9	1	3	4	"Without_Prot"	400	"pUbiP-CG32803-RA-eGFP"	0.01822603116697416
"_13__With\_Prot_"	7038086	64086	"B03"	"nan"	0	8	0	3	1	3	2	"With_Prot"	0	"pUbiP-CG32803-RA-eGFP"	0.00910560058515909
"_13__Without\_Prot_"	16052410	189391	"B03"	"nan"	0	8	0	3	1	3	2	"Without_Prot"	0	"pUbiP-CG32803-RA-eGFP"	0.01179829072394737
"_140__With\_Prot_"	7078819	135455	"D03"	"nan"	0	8	0	10	1	3	4	"With_Prot"	400	"pUbiP-CG32803-RA-eGFP"	0.019135254058621924
"_140__Without\_Prot_"	15625816	306983	"D03"	"nan"	0	8	0	10	1	3	4	"Without_Prot"	400	"pUbiP-CG32803-RA-eGFP"	0.019645886013248844
"_141__With\_Prot_"	543485	7352	"D04"	"nan"	0	8	0	1	1	4	4	"With_Prot"	400	"pUbiP-CG32803-RA-eGFP"	0.01352751225884799
"_141__Without\_Prot_"	4353622	82187	"D04"	"nan"	0	8	0	1	1	4	4	"Without_Prot"	400	"pUbiP-CG32803-RA-eGFP"	0.01887784470034376
"_142__With\_Prot_"	4778969	87153	"D04"	"nan"	0	8	0	2	1	4	4	"With_Prot"	400	"pUbiP-CG32803-RA-eGFP"	0.018236778685946697
"_142__Without\_Prot_"	16913575	315379	"D04"	"nan"	0	8	0	2	1	4	4	"Without_Prot"	400	"pUbiP-CG32803-RA-eGFP"	0.018646501404936566
"_143__With\_Prot_"	8178515	170522	"D04"	"nan"	0	8	0	3	1	4	4	"With_Prot"	400	"pUbiP-CG32803-RA-eGFP"	0.02084999538424763
"_143__Without\_Prot_"	17625945	305630	"D04"	"nan"	0	8	0	3	1	4	4	"Without_Prot"	400	"pUbiP-CG32803-RA-eGFP"	0.0173397795125311
"_144__With\_Prot_"	3351790	70473	"D04"	"nan"	0	8	0	4	1	4	4	"With_Prot"	400	"pUbiP-CG32803-RA-eGFP"	0.021025481906682696
"_144__Without\_Prot_"	15749515	298919	"D04"	"nan"	0	8	0	4	1	4	4	"Without_Prot"	400	"pUbiP-CG32803-RA-eGFP"	0.018979568577191106
"_145__With\_Prot_"	355724	10155	"D04"	"nan"	0	8	0	5	1	4	4	"With_Prot"	400	"pUbiP-CG32803-RA-eGFP"	0.028547413163014023
"_145__Without\_Prot_"	5425942	111650	"D04"	"nan"	0	8	0	5	1	4	4	"Without_Prot"	400	"pUbiP-CG32803-RA-eGFP"	0.020577072147103675
"_146__With\_Prot_"	3644312	71305	"D04"	"nan"	0	8	0	6	1	4	4	"With_Prot"	400	"pUbiP-CG32803-RA-eGFP"	0.019566107402439747
"_146__Without\_Prot_"	15939803	275898	"D04"	"nan"	0	8	0	6	1	4	4	"Without_Prot"	400	"pUbiP-CG32803-RA-eGFP"	0.017308745911100657
"_147__With\_Prot_"	4926111	94609	"D04"	"nan"	0	8	0	7	1	4	4	"With_Prot"	400	"pUbiP-CG32803-RA-eGFP"	0.019205616763406264
"_147__Without\_Prot_"	17607817	340508	"D04"	"nan"	0	8	0	7	1	4	4	"Without_Prot"	400	"pUbiP-CG32803-RA-eGFP"	0.01933845632312058
"_148__With\_Prot_"	8794699	174304	"D04"	"nan"	0	8	0	8	1	4	4	"With_Prot"	400	"pUbiP-CG32803-RA-eGFP"	0.0198192115500485
"_148__Without\_Prot_"	12898322	252566	"D04"	"nan"	0	8	0	8	1	4	4	"Without_Prot"	400	"pUbiP-CG32803-RA-eGFP"	0.019581306777734345
"_149__With\_Prot_"	5869390	113498	"D04"	"nan"	0	8	0	9	1	4	4	"With_Prot"	400	"pUbiP-CG32803-RA-eGFP"	0.01933727354972152
"_149__Without\_Prot_"	16615488	323911	"D04"	"nan"	0	8	0	9	1	4	4	"Without_Prot"	400	"pUbiP-CG32803-RA-eGFP"	0.019494522219269155
"_14__With\_Prot_"	5702771	55196	"B03"	"nan"	0	8	0	4	1	3	2	"With_Prot"	0	"pUbiP-CG32803-RA-eGFP"	0.009678803514992975
"_14__Without\_Prot_"	17029953	186835	"B03"	"nan"	0	8	0	4	1	3	2	"Without_Prot"	0	"pUbiP-CG32803-RA-eGFP"	0.010970963924562798
"_150__With\_Prot_"	7222716	162796	"D04"	"nan"	0	8	0	10	1	4	4	"With_Prot"	400	"pUbiP-CG32803-RA-eGFP"	0.022539443610962967
"_150__Without\_Prot_"	14402111	265473	"D04"	"nan"	0	8	0	10	1	4	4	"Without_Prot"	400	"pUbiP-CG32803-RA-eGFP"	0.018432922784722323
"_151__With\_Prot_"	14629941	288902	"D05"	"nan"	0	8	0	1	1	5	4	"With_Prot"	400	"pUbiP-eGFP-CG32803-RA"	0.019747311352793562
"_151__Without\_Prot_"	9883377	143984	"D05"	"nan"	0	8	0	1	1	5	4	"Without_Prot"	400	"pUbiP-eGFP-CG32803-RA"	0.014568299883734072
"_152__With\_Prot_"	6408407	113949	"D05"	"nan"	0	8	0	2	1	5	4	"With_Prot"	400	"pUbiP-eGFP-CG32803-RA"	0.017781174010951552
"_152__Without\_Prot_"	5600882	104933	"D05"	"nan"	0	8	0	2	1	5	4	"Without_Prot"	400	"pUbiP-eGFP-CG32803-RA"	0.018735084938407916
"_153__With\_Prot_"	13204820	198730	"D05"	"nan"	0	8	0	3	1	5	4	"With_Prot"	400	"pUbiP-eGFP-CG32803-RA"	0.015049807570266008
"_153__Without\_Prot_"	5380135	92443	"D05"	"nan"	0	8	0	3	1	5	4	"Without_Prot"	400	"pUbiP-eGFP-CG32803-RA"	0.017182282600715408
"_154__With\_Prot_"	4209617	82200	"D05"	"nan"	0	8	0	4	1	5	4	"With_Prot"	400	"pUbiP-eGFP-CG32803-RA"	0.019526717038628454
"_154__Without\_Prot_"	4914833	85102	"D05"	"nan"	0	8	0	4	1	5	4	"Without_Prot"	400	"pUbiP-eGFP-CG32803-RA"	0.017315339096974403
"_155__With\_Prot_"	8521064	164942	"D05"	"nan"	0	8	0	5	1	5	4	"With_Prot"	400	"pUbiP-eGFP-CG32803-RA"	0.01935697232176639
"_155__Without\_Prot_"	8490601	140469	"D05"	"nan"	0	8	0	5	1	5	4	"Without_Prot"	400	"pUbiP-eGFP-CG32803-RA"	0.01654405854191005
"_156__With\_Prot_"	5180378	97511	"D05"	"nan"	0	8	0	6	1	5	4	"With_Prot"	400	"pUbiP-eGFP-CG32803-RA"	0.018823143793754046
"_156__Without\_Prot_"	6002274	105778	"D05"	"nan"	0	8	0	6	1	5	4	"Without_Prot"	400	"pUbiP-eGFP-CG32803-RA"	0.017622987554383556
"_157__With\_Prot_"	1474883	25695	"D05"	"nan"	0	8	0	7	1	5	4	"With_Prot"	400	"pUbiP-eGFP-CG32803-RA"	0.01742172090938739
"_157__Without\_Prot_"	4063536	74257	"D05"	"nan"	0	8	0	7	1	5	4	"Without_Prot"	400	"pUbiP-eGFP-CG32803-RA"	0.01827398600627631
"_158__With\_Prot_"	10234785	197865	"D05"	"nan"	0	8	0	8	1	5	4	"With_Prot"	400	"pUbiP-eGFP-CG32803-RA"	0.019332599561202313
"_158__Without\_Prot_"	7313606	140749	"D05"	"nan"	0	8	0	8	1	5	4	"Without_Prot"	400	"pUbiP-eGFP-CG32803-RA"	0.01924481575846443
"_159__With\_Prot_"	947104	15475	"D05"	"nan"	0	8	0	9	1	5	4	"With_Prot"	400	"pUbiP-eGFP-CG32803-RA"	0.0163392826975707
"_159__Without\_Prot_"	2240264	35467	"D05"	"nan"	0	8	0	9	1	5	4	"Without_Prot"	400	"pUbiP-eGFP-CG32803-RA"	0.0158316162737963
"_15__With\_Prot_"	5630365	55931	"B03"	"nan"	0	8	0	5	1	3	2	"With_Prot"	0	"pUbiP-CG32803-RA-eGFP"	0.009933814237620475
"_15__Without\_Prot_"	17101183	185283	"B03"	"nan"	0	8	0	5	1	3	2	"Without_Prot"	0	"pUbiP-CG32803-RA-eGFP"	0.010834513612303897
"_160__With\_Prot_"	5597062	120328	"D05"	"nan"	0	8	0	10	1	5	4	"With_Prot"	400	"pUbiP-eGFP-CG32803-RA"	0.021498421850606624
"_160__Without\_Prot_"	7163956	136284	"D05"	"nan"	0	8	0	10	1	5	4	"Without_Prot"	400	"pUbiP-eGFP-CG32803-RA"	0.019023567425595578
"_161__With\_Prot_"	15350286	273520	"D06"	"nan"	0	8	0	1	1	6	4	"With_Prot"	400	"pUbiP-eGFP-CG32803-RA"	0.017818560514116805
"_161__Without\_Prot_"	9361326	159160	"D06"	"nan"	0	8	0	1	1	6	4	"Without_Prot"	400	"pUbiP-eGFP-CG32803-RA"	0.01700186490674505
"_162__With\_Prot_"	14379974	269655	"D06"	"nan"	0	8	0	2	1	6	4	"With_Prot"	400	"pUbiP-eGFP-CG32803-RA"	0.018752120135961302
"_162__Without\_Prot_"	9381024	156384	"D06"	"nan"	0	8	0	2	1	6	4	"Without_Prot"	400	"pUbiP-eGFP-CG32803-RA"	0.01667024836521045
"_163__With\_Prot_"	14110778	264606	"D06"	"nan"	0	8	0	3	1	6	4	"With_Prot"	400	"pUbiP-eGFP-CG32803-RA"	0.018752048965691333
"_163__Without\_Prot_"	10960561	175722	"D06"	"nan"	0	8	0	3	1	6	4	"Without_Prot"	400	"pUbiP-eGFP-CG32803-RA"	0.01603220857034599
"_164__With\_Prot_"	14557127	291383	"D06"	"nan"	0	8	0	4	1	6	4	"With_Prot"	400	"pUbiP-eGFP-CG32803-RA"	0.02001651836931834
"_164__Without\_Prot_"	8636990	163139	"D06"	"nan"	0	8	0	4	1	6	4	"Without_Prot"	400	"pUbiP-eGFP-CG32803-RA"	0.01888840904064958
"_165__With\_Prot_"	9290811	168556	"D06"	"nan"	0	8	0	5	1	6	4	"With_Prot"	400	"pUbiP-eGFP-CG32803-RA"	0.01814222676577965
"_165__Without\_Prot_"	10542025	176875	"D06"	"nan"	0	8	0	5	1	6	4	"Without_Prot"	400	"pUbiP-eGFP-CG32803-RA"	0.01677808580419796
"_166__With\_Prot_"	2112129	40643	"D06"	"nan"	0	8	0	6	1	6	4	"With_Prot"	400	"pUbiP-eGFP-CG32803-RA"	0.019242669363471646
"_166__Without\_Prot_"	5767387	115714	"D06"	"nan"	0	8	0	6	1	6	4	"Without_Prot"	400	"pUbiP-eGFP-CG32803-RA"	0.020063505362133666
"_167__With\_Prot_"	702733	20356	"D06"	"nan"	0	8	0	7	1	6	4	"With_Prot"	400	"pUbiP-eGFP-CG32803-RA"	0.028966904926906806
"_167__Without\_Prot_"	2061187	40012	"D06"	"nan"	0	8	0	7	1	6	4	"Without_Prot"	400	"pUbiP-eGFP-CG32803-RA"	0.019412115446099748
"_168__With\_Prot_"	17263498	318391	"D06"	"nan"	0	8	0	8	1	6	4	"With_Prot"	400	"pUbiP-eGFP-CG32803-RA"	0.01844301774761986
"_168__Without\_Prot_"	7291585	134974	"D06"	"nan"	0	8	0	8	1	6	4	"Without_Prot"	400	"pUbiP-eGFP-CG32803-RA"	0.01851092732238601
"_169__With\_Prot_"	11658161	227680	"D06"	"nan"	0	8	0	9	1	6	4	"With_Prot"	400	"pUbiP-eGFP-CG32803-RA"	0.019529666814517316
"_169__Without\_Prot_"	8474033	161351	"D06"	"nan"	0	8	0	9	1	6	4	"Without_Prot"	400	"pUbiP-eGFP-CG32803-RA"	0.01904063861917932
"_16__With\_Prot_"	6252403	50069	"B03"	"nan"	0	8	0	6	1	3	2	"With_Prot"	0	"pUbiP-CG32803-RA-eGFP"	0.008007961099116612
"_16__Without\_Prot_"	16015705	155948	"B03"	"nan"	0	8	0	6	1	3	2	"Without_Prot"	0	"pUbiP-CG32803-RA-eGFP"	0.00973719233714657
"_170__With\_Prot_"	13441084	266986	"D06"	"nan"	0	8	0	10	1	6	4	"With_Prot"	400	"pUbiP-eGFP-CG32803-RA"	0.01986342768187447
"_170__Without\_Prot_"	11526452	192447	"D06"	"nan"	0	8	0	10	1	6	4	"Without_Prot"	400	"pUbiP-eGFP-CG32803-RA"	0.016696117764599203
"_171__With\_Prot_"	5154419	111438	"D07"	"nan"	0	8	0	1	1	7	4	"With_Prot"	400	"pUbiP-eGFP-CG32803-RA"	0.0216198954722152
"_171__Without\_Prot_"	10440717	211899	"D07"	"nan"	0	8	0	1	1	7	4	"Without_Prot"	400	"pUbiP-eGFP-CG32803-RA"	0.020295445226606562
"_172__With\_Prot_"	15101334	293552	"D07"	"nan"	0	8	0	2	1	7	4	"With_Prot"	400	"pUbiP-eGFP-CG32803-RA"	0.019438812491664643
"_172__Without\_Prot_"	10365573	199869	"D07"	"nan"	0	8	0	2	1	7	4	"Without_Prot"	400	"pUbiP-eGFP-CG32803-RA"	0.019282002065877112
"_173__With\_Prot_"	13400764	270596	"D07"	"nan"	0	8	0	3	1	7	4	"With_Prot"	400	"pUbiP-eGFP-CG32803-RA"	0.020192580064838095
"_173__Without\_Prot_"	10732414	202371	"D07"	"nan"	0	8	0	3	1	7	4	"Without_Prot"	400	"pUbiP-eGFP-CG32803-RA"	0.01885605605598144
"_174__With\_Prot_"	11380488	238198	"D07"	"nan"	0	8	0	4	1	7	4	"With_Prot"	400	"pUbiP-eGFP-CG32803-RA"	0.020930385410537756
"_174__Without\_Prot_"	10064628	228040	"D07"	"nan"	0	8	0	4	1	7	4	"Without_Prot"	400	"pUbiP-eGFP-CG32803-RA"	0.02265756866523035
"_175__With\_Prot_"	1786535	42010	"D07"	"nan"	0	8	0	5	1	7	4	"With_Prot"	400	"pUbiP-eGFP-CG32803-RA"	0.023514792601320434
"_175__Without\_Prot_"	4428190	105035	"D07"	"nan"	0	8	0	5	1	7	4	"Without_Prot"	400	"pUbiP-eGFP-CG32803-RA"	0.023719623593386915
"_176__With\_Prot_"	1342937	33770	"D07"	"nan"	0	8	0	6	1	7	4	"With_Prot"	400	"pUbiP-eGFP-CG32803-RA"	0.02514637693354193
"_176__Without\_Prot_"	5825016	149588	"D07"	"nan"	0	8	0	6	1	7	4	"Without_Prot"	400	"pUbiP-eGFP-CG32803-RA"	0.02568027280955108
"_177__With\_Prot_"	1638590	38441	"D07"	"nan"	0	8	0	7	1	7	4	"With_Prot"	400	"pUbiP-eGFP-CG32803-RA"	0.02345980385575403
"_177__Without\_Prot_"	2081277	51863	"D07"	"nan"	0	8	0	7	1	7	4	"Without_Prot"	400	"pUbiP-eGFP-CG32803-RA"	0.02491883588777467
"_178__With\_Prot_"	4792397	99097	"D07"	"nan"	0	8	0	8	1	7	4	"With_Prot"	400	"pUbiP-eGFP-CG32803-RA"	0.020677961362549888
"_178__Without\_Prot_"	7002856	148750	"D07"	"nan"	0	8	0	8	1	7	4	"Without_Prot"	400	"pUbiP-eGFP-CG32803-RA"	0.021241333535917346
"_179__With\_Prot_"	5427172	124262	"D07"	"nan"	0	8	0	9	1	7	4	"With_Prot"	400	"pUbiP-eGFP-CG32803-RA"	0.02289627083866146
"_179__Without\_Prot_"	9510828	208391	"D07"	"nan"	0	8	0	9	1	7	4	"Without_Prot"	400	"pUbiP-eGFP-CG32803-RA"	0.02191092089984174
"_17__With\_Prot_"	5981736	56527	"B03"	"nan"	0	8	0	7	1	3	2	"With_Prot"	0	"pUbiP-CG32803-RA-eGFP"	0.00944993226046753
"_17__Without\_Prot_"	16479183	169130	"B03"	"nan"	0	8	0	7	1	3	2	"Without_Prot"	0	"pUbiP-CG32803-RA-eGFP"	0.010263251521631867
"_180__With\_Prot_"	14992316	329551	"D07"	"nan"	0	8	0	10	1	7	4	"With_Prot"	400	"pUbiP-eGFP-CG32803-RA"	0.021981326967761353
"_180__Without\_Prot_"	11113125	215341	"D07"	"nan"	0	8	0	10	1	7	4	"Without_Prot"	400	"pUbiP-eGFP-CG32803-RA"	0.01937717788650807
"_181__With\_Prot_"	8090078	229745	"E02"	"nan"	0	8	0	1	1	2	5	"With_Prot"	600	"pUbiP-CG32803-RA-eGFP"	0.028398366492881775
"_181__Without\_Prot_"	15350526	352831	"E02"	"nan"	0	8	0	1	1	2	5	"Without_Prot"	600	"pUbiP-CG32803-RA-eGFP"	0.022984945271582225
"_182__With\_Prot_"	9338547	225128	"E02"	"nan"	0	8	0	2	1	2	5	"With_Prot"	600	"pUbiP-CG32803-RA-eGFP"	0.024107390582282232
"_182__Without\_Prot_"	15997867	347564	"E02"	"nan"	0	8	0	2	1	2	5	"Without_Prot"	600	"pUbiP-CG32803-RA-eGFP"	0.021725646300222397
"_183__With\_Prot_"	8875375	228137	"E02"	"nan"	0	8	0	3	1	2	5	"With_Prot"	600	"pUbiP-CG32803-RA-eGFP"	0.02570449135952002
"_183__Without\_Prot_"	14908285	316678	"E02"	"nan"	0	8	0	3	1	2	5	"Without_Prot"	600	"pUbiP-CG32803-RA-eGFP"	0.021241745780953343
"_184__With\_Prot_"	5276332	137844	"E02"	"nan"	0	8	0	4	1	2	5	"With_Prot"	600	"pUbiP-CG32803-RA-eGFP"	0.02612496711730801
"_184__Without\_Prot_"	14590534	338001	"E02"	"nan"	0	8	0	4	1	2	5	"Without_Prot"	600	"pUbiP-CG32803-RA-eGFP"	0.023165773096447326
"_185__With\_Prot_"	1844997	46947	"E02"	"nan"	0	8	0	5	1	2	5	"With_Prot"	600	"pUbiP-CG32803-RA-eGFP"	0.025445569830194845
"_185__Without\_Prot_"	10090166	199614	"E02"	"nan"	0	8	0	5	1	2	5	"Without_Prot"	600	"pUbiP-CG32803-RA-eGFP"	0.019783024382354065
"_186__With\_Prot_"	2371054	55558	"E02"	"nan"	0	8	0	6	1	2	5	"With_Prot"	600	"pUbiP-CG32803-RA-eGFP"	0.023431773380108593
"_186__Without\_Prot_"	13838626	290822	"E02"	"nan"	0	8	0	6	1	2	5	"Without_Prot"	600	"pUbiP-CG32803-RA-eGFP"	0.021015236628260638
"_187__With\_Prot_"	1417442	32302	"E02"	"nan"	0	8	0	7	1	2	5	"With_Prot"	600	"pUbiP-CG32803-RA-eGFP"	0.022788939512163462
"_187__Without\_Prot_"	13093319	264214	"E02"	"nan"	0	8	0	7	1	2	5	"Without_Prot"	600	"pUbiP-CG32803-RA-eGFP"	0.020179299076116607
"_188__With\_Prot_"	7906571	205837	"E02"	"nan"	0	8	0	8	1	2	5	"With_Prot"	600	"pUbiP-CG32803-RA-eGFP"	0.026033662380316323
"_188__Without\_Prot_"	17370822	381694	"E02"	"nan"	0	8	0	8	1	2	5	"Without_Prot"	600	"pUbiP-CG32803-RA-eGFP"	0.021973283705284643
"_189__With\_Prot_"	5872784	161016	"E02"	"nan"	0	8	0	9	1	2	5	"With_Prot"	600	"pUbiP-CG32803-RA-eGFP"	0.027417320303283758
"_189__Without\_Prot_"	16302461	393602	"E02"	"nan"	0	8	0	9	1	2	5	"Without_Prot"	600	"pUbiP-CG32803-RA-eGFP"	0.024143716706330413
"_18__With\_Prot_"	1575985	19431	"B03"	"nan"	0	8	0	8	1	3	2	"With_Prot"	0	"pUbiP-CG32803-RA-eGFP"	0.012329432069467666
"_18__Without\_Prot_"	11937760	156848	"B03"	"nan"	0	8	0	8	1	3	2	"Without_Prot"	0	"pUbiP-CG32803-RA-eGFP"	0.01313881331171007
"_190__With\_Prot_"	7345164	190765	"E02"	"nan"	0	8	0	10	1	2	5	"With_Prot"	600	"pUbiP-CG32803-RA-eGFP"	0.02597150996220098
"_190__Without\_Prot_"	15896481	361471	"E02"	"nan"	0	8	0	10	1	2	5	"Without_Prot"	600	"pUbiP-CG32803-RA-eGFP"	0.022739057782662716
"_191__With\_Prot_"	870329	20019	"E03"	"nan"	0	8	0	1	1	3	5	"With_Prot"	600	"pUbiP-CG32803-RA-eGFP"	0.023001646503793393
"_191__Without\_Prot_"	5983774	136711	"E03"	"nan"	0	8	0	1	1	3	5	"Without_Prot"	600	"pUbiP-CG32803-RA-eGFP"	0.02284695244171989
"_192__With\_Prot_"	8572935	222208	"E03"	"nan"	0	8	0	2	1	3	5	"With_Prot"	600	"pUbiP-CG32803-RA-eGFP"	0.025919711277409663
"_192__Without\_Prot_"	13684410	315085	"E03"	"nan"	0	8	0	2	1	3	5	"Without_Prot"	600	"pUbiP-CG32803-RA-eGFP"	0.023025106672483506
"_193__With\_Prot_"	7423433	167104	"E03"	"nan"	0	8	0	3	1	3	5	"With_Prot"	600	"pUbiP-CG32803-RA-eGFP"	0.022510339892607638
"_193__Without\_Prot_"	13444830	318380	"E03"	"nan"	0	8	0	3	1	3	5	"Without_Prot"	600	"pUbiP-CG32803-RA-eGFP"	0.023680477923484343
"_194__With\_Prot_"	7519093	179104	"E03"	"nan"	0	8	0	4	1	3	5	"With_Prot"	600	"pUbiP-CG32803-RA-eGFP"	0.023819894234583878
"_194__Without\_Prot_"	13039378	288553	"E03"	"nan"	0	8	0	4	1	3	5	"Without_Prot"	600	"pUbiP-CG32803-RA-eGFP"	0.022129353102578974
"_195__With\_Prot_"	9169281	258839	"E03"	"nan"	0	8	0	5	1	3	5	"With_Prot"	600	"pUbiP-CG32803-RA-eGFP"	0.028228930927081414
"_195__Without\_Prot_"	13531482	340827	"E03"	"nan"	0	8	0	5	1	3	5	"Without_Prot"	600	"pUbiP-CG32803-RA-eGFP"	0.025187706712391147
"_196__With\_Prot_"	6517746	165323	"E03"	"nan"	0	8	0	6	1	3	5	"With_Prot"	600	"pUbiP-CG32803-RA-eGFP"	0.025365057183879214
"_196__Without\_Prot_"	13898083	321699	"E03"	"nan"	0	8	0	6	1	3	5	"Without_Prot"	600	"pUbiP-CG32803-RA-eGFP"	0.02314700523806053
"_197__With\_Prot_"	5949096	150206	"E03"	"nan"	0	8	0	7	1	3	5	"With_Prot"	600	"pUbiP-CG32803-RA-eGFP"	0.0252485419633504
"_197__Without\_Prot_"	14775127	346777	"E03"	"nan"	0	8	0	7	1	3	5	"Without_Prot"	600	"pUbiP-CG32803-RA-eGFP"	0.023470322793164484
"_198__With\_Prot_"	5639249	134515	"E03"	"nan"	0	8	0	8	1	3	5	"With_Prot"	600	"pUbiP-CG32803-RA-eGFP"	0.023853353522782908
"_198__Without\_Prot_"	14576391	323373	"E03"	"nan"	0	8	0	8	1	3	5	"Without_Prot"	600	"pUbiP-CG32803-RA-eGFP"	0.0221847095073122
"_199__With\_Prot_"	6586450	184243	"E03"	"nan"	0	8	0	9	1	3	5	"With_Prot"	600	"pUbiP-CG32803-RA-eGFP"	0.027973035550258485
"_199__Without\_Prot_"	13175886	308108	"E03"	"nan"	0	8	0	9	1	3	5	"Without_Prot"	600	"pUbiP-CG32803-RA-eGFP"	0.023384233895162723
"_19__With\_Prot_"	7494084	65141	"B03"	"nan"	0	8	0	9	1	3	2	"With_Prot"	0	"pUbiP-CG32803-RA-eGFP"	0.008692323171184096
"_19__Without\_Prot_"	16899489	165363	"B03"	"nan"	0	8	0	9	1	3	2	"Without_Prot"	0	"pUbiP-CG32803-RA-eGFP"	0.009785088768068667
"_1__With\_Prot_"	7803206	62253	"B02"	"nan"	0	8	0	1	1	2	2	"With_Prot"	0	"pUbiP-CG32803-RA-eGFP"	0.007977874735076839
"_1__Without\_Prot_"	15829116	168369	"B02"	"nan"	0	8	0	1	1	2	2	"Without_Prot"	0	"pUbiP-CG32803-RA-eGFP"	0.010636664738574157
"_200__With\_Prot_"	6023758	154608	"E03"	"nan"	0	8	0	10	1	3	5	"With_Prot"	600	"pUbiP-CG32803-RA-eGFP"	0.025666369731320547
"_200__Without\_Prot_"	14751583	343666	"E03"	"nan"	0	8	0	10	1	3	5	"Without_Prot"	600	"pUbiP-CG32803-RA-eGFP"	0.02329688956093729
"_201__With\_Prot_"	5124678	127957	"E04"	"nan"	0	8	0	1	1	4	5	"With_Prot"	600	"pUbiP-CG32803-RA-eGFP"	0.02496878828289309
"_201__Without\_Prot_"	13256748	313910	"E04"	"nan"	0	8	0	1	1	4	5	"Without_Prot"	600	"pUbiP-CG32803-RA-eGFP"	0.023679261309032956
"_202__With\_Prot_"	8365822	204273	"E04"	"nan"	0	8	0	2	1	4	5	"With_Prot"	600	"pUbiP-CG32803-RA-eGFP"	0.024417564705536406
"_202__Without\_Prot_"	14491366	315833	"E04"	"nan"	0	8	0	2	1	4	5	"Without_Prot"	600	"pUbiP-CG32803-RA-eGFP"	0.02179456374230007
"_203__With\_Prot_"	10620706	265044	"E04"	"nan"	0	8	0	3	1	4	5	"With_Prot"	600	"pUbiP-CG32803-RA-eGFP"	0.024955403153048394
"_203__Without\_Prot_"	12828130	302604	"E04"	"nan"	0	8	0	3	1	4	5	"Without_Prot"	600	"pUbiP-CG32803-RA-eGFP"	0.02358909677404267
"_204__With\_Prot_"	2346315	60039	"E04"	"nan"	0	8	0	4	1	4	5	"With_Prot"	600	"pUbiP-CG32803-RA-eGFP"	0.02558863579698378
"_204__Without\_Prot_"	11339713	257946	"E04"	"nan"	0	8	0	4	1	4	5	"Without_Prot"	600	"pUbiP-CG32803-RA-eGFP"	0.022747136545695646
"_205__With\_Prot_"	433832	13191	"E04"	"nan"	0	8	0	5	1	4	5	"With_Prot"	600	"pUbiP-CG32803-RA-eGFP"	0.030405779195633333
"_205__Without\_Prot_"	4913325	109834	"E04"	"nan"	0	8	0	5	1	4	5	"Without_Prot"	600	"pUbiP-CG32803-RA-eGFP"	0.02235431199849389
"_206__With\_Prot_"	3195006	70452	"E04"	"nan"	0	8	0	6	1	4	5	"With_Prot"	600	"pUbiP-CG32803-RA-eGFP"	0.022050662815656683
"_206__Without\_Prot_"	10306580	236344	"E04"	"nan"	0	8	0	6	1	4	5	"Without_Prot"	600	"pUbiP-CG32803-RA-eGFP"	0.022931370056798666
"_207__With\_Prot_"	2129428	50827	"E04"	"nan"	0	8	0	7	1	4	5	"With_Prot"	600	"pUbiP-CG32803-RA-eGFP"	0.023868851165665145
"_207__Without\_Prot_"	10662955	242540	"E04"	"nan"	0	8	0	7	1	4	5	"Without_Prot"	600	"pUbiP-CG32803-RA-eGFP"	0.022746039911075308
"_208__With\_Prot_"	9018161	242917	"E04"	"nan"	0	8	0	8	1	4	5	"With_Prot"	600	"pUbiP-CG32803-RA-eGFP"	0.026936423068960512
"_208__Without\_Prot_"	12176882	298917	"E04"	"nan"	0	8	0	8	1	4	5	"Without_Prot"	600	"pUbiP-CG32803-RA-eGFP"	0.0245479097194175
"_209__With\_Prot_"	7274457	154477	"E04"	"nan"	0	8	0	9	1	4	5	"With_Prot"	600	"pUbiP-CG32803-RA-eGFP"	0.021235536892994213
"_209__Without\_Prot_"	13662668	304534	"E04"	"nan"	0	8	0	9	1	4	5	"Without_Prot"	600	"pUbiP-CG32803-RA-eGFP"	0.022289497190446258
"_20__With\_Prot_"	5401085	48220	"B03"	"nan"	0	8	0	10	1	3	2	"With_Prot"	0	"pUbiP-CG32803-RA-eGFP"	0.008927835795955812
"_20__Without\_Prot_"	17234024	177185	"B03"	"nan"	0	8	0	10	1	3	2	"Without_Prot"	0	"pUbiP-CG32803-RA-eGFP"	0.010281116006337231
"_210__With\_Prot_"	9252103	220326	"E04"	"nan"	0	8	0	10	1	4	5	"With_Prot"	600	"pUbiP-CG32803-RA-eGFP"	0.023813612969937753
"_210__Without\_Prot_"	11669764	289237	"E04"	"nan"	0	8	0	10	1	4	5	"Without_Prot"	600	"pUbiP-CG32803-RA-eGFP"	0.02478516275050635
"_211__With\_Prot_"	11716077	260902	"E05"	"nan"	0	8	0	1	1	5	5	"With_Prot"	600	"pUbiP-eGFP-CG32803-RA"	0.02226871673854653
"_211__Without\_Prot_"	7417898	129846	"E05"	"nan"	0	8	0	1	1	5	5	"Without_Prot"	600	"pUbiP-eGFP-CG32803-RA"	0.017504419715666082
"_212__With\_Prot_"	9398027	245084	"E05"	"nan"	0	8	0	2	1	5	5	"With_Prot"	600	"pUbiP-eGFP-CG32803-RA"	0.026078239613484832
"_212__Without\_Prot_"	7459416	164178	"E05"	"nan"	0	8	0	2	1	5	5	"Without_Prot"	600	"pUbiP-eGFP-CG32803-RA"	0.02200949779446541
"_213__With\_Prot_"	10336940	205828	"E05"	"nan"	0	8	0	3	1	5	5	"With_Prot"	600	"pUbiP-eGFP-CG32803-RA"	0.019911888818160885
"_213__Without\_Prot_"	4251784	76851	"E05"	"nan"	0	8	0	3	1	5	5	"Without_Prot"	600	"pUbiP-eGFP-CG32803-RA"	0.018075000987820642
"_214__With\_Prot_"	12677115	287564	"E05"	"nan"	0	8	0	4	1	5	5	"With_Prot"	600	"pUbiP-eGFP-CG32803-RA"	0.022683709976599565
"_214__Without\_Prot_"	6003617	129470	"E05"	"nan"	0	8	0	4	1	5	5	"Without_Prot"	600	"pUbiP-eGFP-CG32803-RA"	0.02156533303173737
"_215__With\_Prot_"	5355426	113369	"E05"	"nan"	0	8	0	5	1	5	5	"With_Prot"	600	"pUbiP-eGFP-CG32803-RA"	0.021168997573675744
"_215__Without\_Prot_"	4997619	90392	"E05"	"nan"	0	8	0	5	1	5	5	"Without_Prot"	600	"pUbiP-eGFP-CG32803-RA"	0.018087013035607558
"_216__With\_Prot_"	7349277	165041	"E05"	"nan"	0	8	0	6	1	5	5	"With_Prot"	600	"pUbiP-eGFP-CG32803-RA"	0.022456766835703704
"_216__Without\_Prot_"	5938060	129784	"E05"	"nan"	0	8	0	6	1	5	5	"Without_Prot"	600	"pUbiP-eGFP-CG32803-RA"	0.021856296500877392
"_217__With\_Prot_"	3795739	81484	"E05"	"nan"	0	8	0	7	1	5	5	"With_Prot"	600	"pUbiP-eGFP-CG32803-RA"	0.021467229438061994
"_217__Without\_Prot_"	6899408	158697	"E05"	"nan"	0	8	0	7	1	5	5	"Without_Prot"	600	"pUbiP-eGFP-CG32803-RA"	0.023001538682739155
"_218__With\_Prot_"	6694471	142965	"E05"	"nan"	0	8	0	8	1	5	5	"With_Prot"	600	"pUbiP-eGFP-CG32803-RA"	0.021355682921025427
"_218__Without\_Prot_"	7377824	149275	"E05"	"nan"	0	8	0	8	1	5	5	"Without_Prot"	600	"pUbiP-eGFP-CG32803-RA"	0.020232930468387426
"_219__With\_Prot_"	5399994	128596	"E05"	"nan"	0	8	0	9	1	5	5	"With_Prot"	600	"pUbiP-eGFP-CG32803-RA"	0.02381410053418578
"_219__Without\_Prot_"	6019886	113644	"E05"	"nan"	0	8	0	9	1	5	5	"Without_Prot"	600	"pUbiP-eGFP-CG32803-RA"	0.01887809835601538
"_21__With\_Prot_"	1180284	24442	"B04"	"nan"	0	8	0	1	1	4	2	"With_Prot"	0	"pUbiP-CG32803-RA-eGFP"	0.02070857522426806
"_21__Without\_Prot_"	8683762	122113	"B04"	"nan"	0	8	0	1	1	4	2	"Without_Prot"	0	"pUbiP-CG32803-RA-eGFP"	0.014062223262222064
"_220__With\_Prot_"	12914686	287550	"E05"	"nan"	0	8	0	10	1	5	5	"With_Prot"	600	"pUbiP-eGFP-CG32803-RA"	0.02226534969568753
"_220__Without\_Prot_"	6821683	150071	"E05"	"nan"	0	8	0	10	1	5	5	"Without_Prot"	600	"pUbiP-eGFP-CG32803-RA"	0.021999116640277774
"_221__With\_Prot_"	5791815	137192	"E06"	"nan"	0	8	0	1	1	6	5	"With_Prot"	600	"pUbiP-eGFP-CG32803-RA"	0.023687220672621623
"_221__Without\_Prot_"	6747035	161732	"E06"	"nan"	0	8	0	1	1	6	5	"Without_Prot"	600	"pUbiP-eGFP-CG32803-RA"	0.02397082570343862
"_222__With\_Prot_"	13631431	322812	"E06"	"nan"	0	8	0	2	1	6	5	"With_Prot"	600	"pUbiP-eGFP-CG32803-RA"	0.023681446210599606
"_222__Without\_Prot_"	7623224	165204	"E06"	"nan"	0	8	0	2	1	6	5	"Without_Prot"	600	"pUbiP-eGFP-CG32803-RA"	0.02167114596134129
"_223__With\_Prot_"	10864485	275040	"E06"	"nan"	0	8	0	3	1	6	5	"With_Prot"	600	"pUbiP-eGFP-CG32803-RA"	0.025315511963981727
"_223__Without\_Prot_"	9475937	245567	"E06"	"nan"	0	8	0	3	1	6	5	"Without_Prot"	600	"pUbiP-eGFP-CG32803-RA"	0.025914798715947564
"_224__With\_Prot_"	9672395	261175	"E06"	"nan"	0	8	0	4	1	6	5	"With_Prot"	600	"pUbiP-eGFP-CG32803-RA"	0.027002102374851317
"_224__Without\_Prot_"	6888740	145405	"E06"	"nan"	0	8	0	4	1	6	5	"Without_Prot"	600	"pUbiP-eGFP-CG32803-RA"	0.02110763361659752
"_225__With\_Prot_"	6025925	139313	"E06"	"nan"	0	8	0	5	1	6	5	"With_Prot"	600	"pUbiP-eGFP-CG32803-RA"	0.023118940245688422
"_225__Without\_Prot_"	7993261	177000	"E06"	"nan"	0	8	0	5	1	6	5	"Without_Prot"	600	"pUbiP-eGFP-CG32803-RA"	0.02214365325991482
"_226__With\_Prot_"	7487003	190193	"E06"	"nan"	0	8	0	6	1	6	5	"With_Prot"	600	"pUbiP-eGFP-CG32803-RA"	0.025403088525542197
"_226__Without\_Prot_"	7925716	190149	"E06"	"nan"	0	8	0	6	1	6	5	"Without_Prot"	600	"pUbiP-eGFP-CG32803-RA"	0.02399139711793862
"_227__With\_Prot_"	7145396	180241	"E06"	"nan"	0	8	0	7	1	6	5	"With_Prot"	600	"pUbiP-eGFP-CG32803-RA"	0.02522477410629166
"_227__Without\_Prot_"	8328056	189364	"E06"	"nan"	0	8	0	7	1	6	5	"Without_Prot"	600	"pUbiP-eGFP-CG32803-RA"	0.02273807957103074
"_228__With\_Prot_"	12289200	317543	"E06"	"nan"	0	8	0	8	1	6	5	"With_Prot"	600	"pUbiP-eGFP-CG32803-RA"	0.025839192136184616
"_228__Without\_Prot_"	6223535	143827	"E06"	"nan"	0	8	0	8	1	6	5	"Without_Prot"	600	"pUbiP-eGFP-CG32803-RA"	0.023110177736607892
"_229__With\_Prot_"	10797009	277002	"E06"	"nan"	0	8	0	9	1	6	5	"With_Prot"	600	"pUbiP-eGFP-CG32803-RA"	0.02565543846448586
"_229__Without\_Prot_"	7759799	189167	"E06"	"nan"	0	8	0	9	1	6	5	"Without_Prot"	600	"pUbiP-eGFP-CG32803-RA"	0.024377822157506914
"_22__With\_Prot_"	9927738	135483	"B04"	"nan"	0	8	0	2	1	4	2	"With_Prot"	0	"pUbiP-CG32803-RA-eGFP"	0.013646915339627214
"_22__Without\_Prot_"	13852687	219805	"B04"	"nan"	0	8	0	2	1	4	2	"Without_Prot"	0	"pUbiP-CG32803-RA-eGFP"	0.015867318737512803
"_230__With\_Prot_"	9869382	287146	"E06"	"nan"	0	8	0	10	1	6	5	"With_Prot"	600	"pUbiP-eGFP-CG32803-RA"	0.029094628214816287
"_230__Without\_Prot_"	8464903	203876	"E06"	"nan"	0	8	0	10	1	6	5	"Without_Prot"	600	"pUbiP-eGFP-CG32803-RA"	0.02408485956661287
"_231__With\_Prot_"	1658550	50586	"E07"	"nan"	0	8	0	1	1	7	5	"With_Prot"	600	"pUbiP-eGFP-CG32803-RA"	0.03050013566066745
"_231__Without\_Prot_"	4862424	132952	"E07"	"nan"	0	8	0	1	1	7	5	"Without_Prot"	600	"pUbiP-eGFP-CG32803-RA"	0.0273427409868
"_232__With\_Prot_"	12047427	301488	"E07"	"nan"	0	8	0	2	1	7	5	"With_Prot"	600	"pUbiP-eGFP-CG32803-RA"	0.025025094569985775
"_232__Without\_Prot_"	8147400	179134	"E07"	"nan"	0	8	0	2	1	7	5	"Without_Prot"	600	"pUbiP-eGFP-CG32803-RA"	0.021986646046591552
"_233__With\_Prot_"	15697092	395270	"E07"	"nan"	0	8	0	3	1	7	5	"With_Prot"	600	"pUbiP-eGFP-CG32803-RA"	0.025181097237628472
"_233__Without\_Prot_"	9740579	224282	"E07"	"nan"	0	8	0	3	1	7	5	"Without_Prot"	600	"pUbiP-eGFP-CG32803-RA"	0.023025530617841097
"_234__With\_Prot_"	7216700	195089	"E07"	"nan"	0	8	0	4	1	7	5	"With_Prot"	600	"pUbiP-eGFP-CG32803-RA"	0.027032992919201297
"_234__Without\_Prot_"	9314931	214887	"E07"	"nan"	0	8	0	4	1	7	5	"Without_Prot"	600	"pUbiP-eGFP-CG32803-RA"	0.023069091977170844
"_235__With\_Prot_"	1488172	41032	"E07"	"nan"	0	8	0	5	1	7	5	"With_Prot"	600	"pUbiP-eGFP-CG32803-RA"	0.027572081721736467
"_235__Without\_Prot_"	4498387	134974	"E07"	"nan"	0	8	0	5	1	7	5	"Without_Prot"	600	"pUbiP-eGFP-CG32803-RA"	0.030004977339655303
"_236__With\_Prot_"	6825747	158714	"E07"	"nan"	0	8	0	6	1	7	5	"With_Prot"	600	"pUbiP-eGFP-CG32803-RA"	0.023252253562870116
"_236__Without\_Prot_"	8874127	242036	"E07"	"nan"	0	8	0	6	1	7	5	"Without_Prot"	600	"pUbiP-eGFP-CG32803-RA"	0.02727434484541409
"_237__With\_Prot_"	3238451	99775	"E07"	"nan"	0	8	0	7	1	7	5	"With_Prot"	600	"pUbiP-eGFP-CG32803-RA"	0.030809482681689485
"_237__Without\_Prot_"	6769497	155577	"E07"	"nan"	0	8	0	7	1	7	5	"Without_Prot"	600	"pUbiP-eGFP-CG32803-RA"	0.022982062035037464
"_238__With\_Prot_"	6188314	167954	"E07"	"nan"	0	8	0	8	1	7	5	"With_Prot"	600	"pUbiP-eGFP-CG32803-RA"	0.027140510323167184
"_238__Without\_Prot_"	8329697	206037	"E07"	"nan"	0	8	0	8	1	7	5	"Without_Prot"	600	"pUbiP-eGFP-CG32803-RA"	0.02473523346647543
"_239__With\_Prot_"	8243773	219362	"E07"	"nan"	0	8	0	9	1	7	5	"With_Prot"	600	"pUbiP-eGFP-CG32803-RA"	0.026609417799349885
"_239__Without\_Prot_"	10704334	247909	"E07"	"nan"	0	8	0	9	1	7	5	"Without_Prot"	600	"pUbiP-eGFP-CG32803-RA"	0.023159684666042745
"_23__With\_Prot_"	11933032	185664	"B04"	"nan"	0	8	0	3	1	4	2	"With_Prot"	0	"pUbiP-CG32803-RA-eGFP"	0.01555882863634322
"_23__Without\_Prot_"	15524189	244921	"B04"	"nan"	0	8	0	3	1	4	2	"Without_Prot"	0	"pUbiP-CG32803-RA-eGFP"	0.01577673397302751
"_240__With\_Prot_"	9799536	279979	"E07"	"nan"	0	8	0	10	1	7	5	"With_Prot"	600	"pUbiP-eGFP-CG32803-RA"	0.02857063844655502
"_240__Without\_Prot_"	9788982	263543	"E07"	"nan"	0	8	0	10	1	7	5	"Without_Prot"	600	"pUbiP-eGFP-CG32803-RA"	0.0269224113396061
"_241__With\_Prot_"	6134299	174028	"F02"	"nan"	0	8	0	1	1	2	6	"With_Prot"	800	"pUbiP-CG32803-RA-eGFP"	0.028369663754570815
"_241__Without\_Prot_"	12836639	367944	"F02"	"nan"	0	8	0	1	1	2	6	"Without_Prot"	800	"pUbiP-CG32803-RA-eGFP"	0.028663577748038252
"_242__With\_Prot_"	7878164	206528	"F02"	"nan"	0	8	0	2	1	2	6	"With_Prot"	800	"pUbiP-CG32803-RA-eGFP"	0.026215245074867697
"_242__Without\_Prot_"	12605837	302149	"F02"	"nan"	0	8	0	2	1	2	6	"Without_Prot"	800	"pUbiP-CG32803-RA-eGFP"	0.023968975641998225
"_243__With\_Prot_"	8176215	256071	"F02"	"nan"	0	8	0	3	1	2	6	"With_Prot"	800	"pUbiP-CG32803-RA-eGFP"	0.031319014972086716
"_243__Without\_Prot_"	11455700	330975	"F02"	"nan"	0	8	0	3	1	2	6	"Without_Prot"	800	"pUbiP-CG32803-RA-eGFP"	0.0288917307541224
"_244__With\_Prot_"	5975283	172846	"F02"	"nan"	0	8	0	4	1	2	6	"With_Prot"	800	"pUbiP-CG32803-RA-eGFP"	0.028926830745924503
"_244__Without\_Prot_"	13700692	333162	"F02"	"nan"	0	8	0	4	1	2	6	"Without_Prot"	800	"pUbiP-CG32803-RA-eGFP"	0.02431716587746079
"_245__With\_Prot_"	8259569	258776	"F02"	"nan"	0	8	0	5	1	2	6	"With_Prot"	800	"pUbiP-CG32803-RA-eGFP"	0.03133044835632465
"_245__Without\_Prot_"	13151083	346342	"F02"	"nan"	0	8	0	5	1	2	6	"Without_Prot"	800	"pUbiP-CG32803-RA-eGFP"	0.026335625742762023
"_246__With\_Prot_"	8713915	255131	"F02"	"nan"	0	8	0	6	1	2	6	"With_Prot"	800	"pUbiP-CG32803-RA-eGFP"	0.029278573408163838
"_246__Without\_Prot_"	13209685	361340	"F02"	"nan"	0	8	0	6	1	2	6	"Without_Prot"	800	"pUbiP-CG32803-RA-eGFP"	0.027354172336433457
"_247__With\_Prot_"	7640945	219820	"F02"	"nan"	0	8	0	7	1	2	6	"With_Prot"	800	"pUbiP-CG32803-RA-eGFP"	0.028768692877647987
"_247__Without\_Prot_"	11805203	334558	"F02"	"nan"	0	8	0	7	1	2	6	"Without_Prot"	800	"pUbiP-CG32803-RA-eGFP"	0.028339876916983132
"_248__With\_Prot_"	1664714	37990	"F02"	"nan"	0	8	0	8	1	2	6	"With_Prot"	800	"pUbiP-CG32803-RA-eGFP"	0.02282073677520583
"_248__Without\_Prot_"	8765238	198540	"F02"	"nan"	0	8	0	8	1	2	6	"Without_Prot"	800	"pUbiP-CG32803-RA-eGFP"	0.02265083960070451
"_249__With\_Prot_"	8344180	271923	"F02"	"nan"	0	8	0	9	1	2	6	"With_Prot"	800	"pUbiP-CG32803-RA-eGFP"	0.032588343012734625
"_249__Without\_Prot_"	12566758	353029	"F02"	"nan"	0	8	0	9	1	2	6	"Without_Prot"	800	"pUbiP-CG32803-RA-eGFP"	0.028092289196624938
"_24__With\_Prot_"	5758217	88852	"B04"	"nan"	0	8	0	4	1	4	2	"With_Prot"	0	"pUbiP-CG32803-RA-eGFP"	0.015430470925288159
"_24__Without\_Prot_"	17052997	250340	"B04"	"nan"	0	8	0	4	1	4	2	"Without_Prot"	0	"pUbiP-CG32803-RA-eGFP"	0.014680117518345895
"_250__With\_Prot_"	6091969	196996	"F02"	"nan"	0	8	0	10	1	2	6	"With_Prot"	800	"pUbiP-CG32803-RA-eGFP"	0.03233699974507421
"_250__Without\_Prot_"	13033311	339423	"F02"	"nan"	0	8	0	10	1	2	6	"Without_Prot"	800	"pUbiP-CG32803-RA-eGFP"	0.02604273004764484
"_251__With\_Prot_"	7539699	207390	"F03"	"nan"	0	8	0	1	1	3	6	"With_Prot"	800	"pUbiP-CG32803-RA-eGFP"	0.027506403107073637
"_251__Without\_Prot_"	14156450	345880	"F03"	"nan"	0	8	0	1	1	3	6	"Without_Prot"	800	"pUbiP-CG32803-RA-eGFP"	0.024432679096807464
"_252__With\_Prot_"	7515083	202258	"F03"	"nan"	0	8	0	2	1	3	6	"With_Prot"	800	"pUbiP-CG32803-RA-eGFP"	0.02691360827285607
"_252__Without\_Prot_"	13357717	350368	"F03"	"nan"	0	8	0	2	1	3	6	"Without_Prot"	800	"pUbiP-CG32803-RA-eGFP"	0.026229631904913092
"_253__With\_Prot_"	9342890	246966	"F03"	"nan"	0	8	0	3	1	3	6	"With_Prot"	800	"pUbiP-CG32803-RA-eGFP"	0.02643357676265053
"_253__Without\_Prot_"	15862821	381841	"F03"	"nan"	0	8	0	3	1	3	6	"Without_Prot"	800	"pUbiP-CG32803-RA-eGFP"	0.024071443534539032
"_254__With\_Prot_"	8529303	231390	"F03"	"nan"	0	8	0	4	1	3	6	"With_Prot"	800	"pUbiP-CG32803-RA-eGFP"	0.02712882869796043
"_254__Without\_Prot_"	15779255	359122	"F03"	"nan"	0	8	0	4	1	3	6	"Without_Prot"	800	"pUbiP-CG32803-RA-eGFP"	0.02275912265819901
"_255__With\_Prot_"	4388878	124018	"F03"	"nan"	0	8	0	5	1	3	6	"With_Prot"	800	"pUbiP-CG32803-RA-eGFP"	0.02825733592959294
"_255__Without\_Prot_"	14723068	339486	"F03"	"nan"	0	8	0	5	1	3	6	"Without_Prot"	800	"pUbiP-CG32803-RA-eGFP"	0.023058101748901792
"_256__With\_Prot_"	3980737	92870	"F03"	"nan"	0	8	0	6	1	3	6	"With_Prot"	800	"pUbiP-CG32803-RA-eGFP"	0.02332985072864648
"_256__Without\_Prot_"	13287136	314952	"F03"	"nan"	0	8	0	6	1	3	6	"Without_Prot"	800	"pUbiP-CG32803-RA-eGFP"	0.023703527983758126
"_257__With\_Prot_"	1417112	33317	"F03"	"nan"	0	8	0	7	1	3	6	"With_Prot"	800	"pUbiP-CG32803-RA-eGFP"	0.023510491760707693
"_257__Without\_Prot_"	8028177	192401	"F03"	"nan"	0	8	0	7	1	3	6	"Without_Prot"	800	"pUbiP-CG32803-RA-eGFP"	0.023965714756911814
"_258__With\_Prot_"	7596747	207962	"F03"	"nan"	0	8	0	8	1	3	6	"With_Prot"	800	"pUbiP-CG32803-RA-eGFP"	0.027375138332236152
"_258__Without\_Prot_"	12305329	325514	"F03"	"nan"	0	8	0	8	1	3	6	"Without_Prot"	800	"pUbiP-CG32803-RA-eGFP"	0.02645309198965749
"_259__With\_Prot_"	3772972	92543	"F03"	"nan"	0	8	0	9	1	3	6	"With_Prot"	800	"pUbiP-CG32803-RA-eGFP"	0.024527878818077633
"_259__Without\_Prot_"	12708987	318183	"F03"	"nan"	0	8	0	9	1	3	6	"Without_Prot"	800	"pUbiP-CG32803-RA-eGFP"	0.02503606306309071
"_25__With\_Prot_"	3266660	45167	"B04"	"nan"	0	8	0	5	1	4	2	"With_Prot"	0	"pUbiP-CG32803-RA-eGFP"	0.01382666087073647
"_25__Without\_Prot_"	14326828	182156	"B04"	"nan"	0	8	0	5	1	4	2	"Without_Prot"	0	"pUbiP-CG32803-RA-eGFP"	0.01271432867065899
"_260__With\_Prot_"	7065720	209824	"F03"	"nan"	0	8	0	10	1	3	6	"With_Prot"	800	"pUbiP-CG32803-RA-eGFP"	0.0296960536222777
"_260__Without\_Prot_"	13906224	369842	"F03"	"nan"	0	8	0	10	1	3	6	"Without_Prot"	800	"pUbiP-CG32803-RA-eGFP"	0.026595429499769313
"_261__With\_Prot_"	9521802	285549	"F04"	"nan"	0	8	0	1	1	4	6	"With_Prot"	800	"pUbiP-CG32803-RA-eGFP"	0.029988966374222024
"_261__Without\_Prot_"	11924824	337199	"F04"	"nan"	0	8	0	1	1	4	6	"Without_Prot"	800	"pUbiP-CG32803-RA-eGFP"	0.028277063040930417
"_262__With\_Prot_"	9856599	284921	"F04"	"nan"	0	8	0	2	1	4	6	"With_Prot"	800	"pUbiP-CG32803-RA-eGFP"	0.02890662387705942
"_262__Without\_Prot_"	12134826	306704	"F04"	"nan"	0	8	0	2	1	4	6	"Without_Prot"	800	"pUbiP-CG32803-RA-eGFP"	0.025274692855093265
"_263__With\_Prot_"	7964338	243451	"F04"	"nan"	0	8	0	3	1	4	6	"With_Prot"	800	"pUbiP-CG32803-RA-eGFP"	0.030567637887794315
"_263__Without\_Prot_"	12432202	358876	"F04"	"nan"	0	8	0	3	1	4	6	"Without_Prot"	800	"pUbiP-CG32803-RA-eGFP"	0.028866648080525074
"_264__With\_Prot_"	8198012	234687	"F04"	"nan"	0	8	0	4	1	4	6	"With_Prot"	800	"pUbiP-CG32803-RA-eGFP"	0.028627306229851823
"_264__Without\_Prot_"	11765160	309992	"F04"	"nan"	0	8	0	4	1	4	6	"Without_Prot"	800	"pUbiP-CG32803-RA-eGFP"	0.026348302955505918
"_265__With\_Prot_"	5319844	146122	"F04"	"nan"	0	8	0	5	1	4	6	"With_Prot"	800	"pUbiP-CG32803-RA-eGFP"	0.027467346786860667
"_265__Without\_Prot_"	14731940	375081	"F04"	"nan"	0	8	0	5	1	4	6	"Without_Prot"	800	"pUbiP-CG32803-RA-eGFP"	0.02546039421827675
"_266__With\_Prot_"	5653854	153289	"F04"	"nan"	0	8	0	6	1	4	6	"With_Prot"	800	"pUbiP-CG32803-RA-eGFP"	0.027112302510818285
"_266__Without\_Prot_"	13012896	380838	"F04"	"nan"	0	8	0	6	1	4	6	"Without_Prot"	800	"pUbiP-CG32803-RA-eGFP"	0.02926619870012025
"_267__With\_Prot_"	1008254	24182	"F04"	"nan"	0	8	0	7	1	4	6	"With_Prot"	800	"pUbiP-CG32803-RA-eGFP"	0.023984035768764615
"_267__Without\_Prot_"	7017931	169301	"F04"	"nan"	0	8	0	7	1	4	6	"Without_Prot"	800	"pUbiP-CG32803-RA-eGFP"	0.024124061635829707
"_268__With\_Prot_"	4980891	139790	"F04"	"nan"	0	8	0	8	1	4	6	"With_Prot"	800	"pUbiP-CG32803-RA-eGFP"	0.028065259809941633
"_268__Without\_Prot_"	14557681	371769	"F04"	"nan"	0	8	0	8	1	4	6	"Without_Prot"	800	"pUbiP-CG32803-RA-eGFP"	0.02553765259727837
"_269__With\_Prot_"	1823357	64091	"F04"	"nan"	0	8	0	9	1	4	6	"With_Prot"	800	"pUbiP-CG32803-RA-eGFP"	0.03515000079523648
"_269__Without\_Prot_"	9328902	249498	"F04"	"nan"	0	8	0	9	1	4	6	"Without_Prot"	800	"pUbiP-CG32803-RA-eGFP"	0.02674462653804274
"_26__With\_Prot_"	6254957	87113	"B04"	"nan"	0	8	0	6	1	4	2	"With_Prot"	0	"pUbiP-CG32803-RA-eGFP"	0.013927034190642718
"_26__Without\_Prot_"	14786856	227482	"B04"	"nan"	0	8	0	6	1	4	2	"Without_Prot"	0	"pUbiP-CG32803-RA-eGFP"	0.015384068121039388
"_270__With\_Prot_"	4505181	137162	"F04"	"nan"	0	8	0	10	1	4	6	"With_Prot"	800	"pUbiP-CG32803-RA-eGFP"	0.03044539165019119
"_270__Without\_Prot_"	13778070	368113	"F04"	"nan"	0	8	0	10	1	4	6	"Without_Prot"	800	"pUbiP-CG32803-RA-eGFP"	0.026717312366681255
"_271__With\_Prot_"	10626203	350426	"F05"	"nan"	0	8	0	1	1	5	6	"With_Prot"	800	"pUbiP-eGFP-CG32803-RA"	0.03297753675513257
"_271__Without\_Prot_"	7528762	234032	"F05"	"nan"	0	8	0	1	1	5	6	"Without_Prot"	800	"pUbiP-eGFP-CG32803-RA"	0.031085057543325183
"_272__With\_Prot_"	9126570	305148	"F05"	"nan"	0	8	0	2	1	5	6	"With_Prot"	800	"pUbiP-eGFP-CG32803-RA"	0.03343512403893248
"_272__Without\_Prot_"	7471788	246229	"F05"	"nan"	0	8	0	2	1	5	6	"Without_Prot"	800	"pUbiP-eGFP-CG32803-RA"	0.032954494961580816
"_273__With\_Prot_"	8220278	270784	"F05"	"nan"	0	8	0	3	1	5	6	"With_Prot"	800	"pUbiP-eGFP-CG32803-RA"	0.03294097839513457
"_273__Without\_Prot_"	6166149	147433	"F05"	"nan"	0	8	0	3	1	5	6	"Without_Prot"	800	"pUbiP-eGFP-CG32803-RA"	0.023910061206759682
"_274__With\_Prot_"	9098246	300117	"F05"	"nan"	0	8	0	4	1	5	6	"With_Prot"	800	"pUbiP-eGFP-CG32803-RA"	0.03298624811859341
"_274__Without\_Prot_"	5740298	149867	"F05"	"nan"	0	8	0	4	1	5	6	"Without_Prot"	800	"pUbiP-eGFP-CG32803-RA"	0.02610787802305734
"_275__With\_Prot_"	9537247	323419	"F05"	"nan"	0	8	0	5	1	5	6	"With_Prot"	800	"pUbiP-eGFP-CG32803-RA"	0.033911148573587326
"_275__Without\_Prot_"	5318105	150570	"F05"	"nan"	0	8	0	5	1	5	6	"Without_Prot"	800	"pUbiP-eGFP-CG32803-RA"	0.02831271665377047
"_276__With\_Prot_"	4754534	121663	"F05"	"nan"	0	8	0	6	1	5	6	"With_Prot"	800	"pUbiP-eGFP-CG32803-RA"	0.025588837938691784
"_276__Without\_Prot_"	4841021	139250	"F05"	"nan"	0	8	0	6	1	5	6	"Without_Prot"	800	"pUbiP-eGFP-CG32803-RA"	0.028764593254191628
"_277__With\_Prot_"	1390909	44120	"F05"	"nan"	0	8	0	7	1	5	6	"With_Prot"	800	"pUbiP-eGFP-CG32803-RA"	0.03172026351112833
"_277__Without\_Prot_"	2207981	56573	"F05"	"nan"	0	8	0	7	1	5	6	"Without_Prot"	800	"pUbiP-eGFP-CG32803-RA"	0.02562205018974348
"_278__With\_Prot_"	10213423	376992	"F05"	"nan"	0	8	0	8	1	5	6	"With_Prot"	800	"pUbiP-eGFP-CG32803-RA"	0.03691142528807433
"_278__Without\_Prot_"	6135190	188820	"F05"	"nan"	0	8	0	8	1	5	6	"Without_Prot"	800	"pUbiP-eGFP-CG32803-RA"	0.030776552967389764
"_279__With\_Prot_"	878302	23754	"F05"	"nan"	0	8	0	9	1	5	6	"With_Prot"	800	"pUbiP-eGFP-CG32803-RA"	0.02704536708330392
"_279__Without\_Prot_"	1188807	32527	"F05"	"nan"	0	8	0	9	1	5	6	"Without_Prot"	800	"pUbiP-eGFP-CG32803-RA"	0.02736104346626492
"_27__With\_Prot_"	5269132	86626	"B04"	"nan"	0	8	0	7	1	4	2	"With_Prot"	0	"pUbiP-CG32803-RA-eGFP"	0.016440278968148835
"_27__Without\_Prot_"	17273460	299433	"B04"	"nan"	0	8	0	7	1	4	2	"Without_Prot"	0	"pUbiP-CG32803-RA-eGFP"	0.017334859373860246
"_280__With\_Prot_"	8289306	269629	"F05"	"nan"	0	8	0	10	1	5	6	"With_Prot"	800	"pUbiP-eGFP-CG32803-RA"	0.03252733099731148
"_280__Without\_Prot_"	6450559	169889	"F05"	"nan"	0	8	0	10	1	5	6	"Without_Prot"	800	"pUbiP-eGFP-CG32803-RA"	0.026337097296528875
"_281__With\_Prot_"	7730086	240836	"F06"	"nan"	0	8	0	1	1	6	6	"With_Prot"	800	"pUbiP-eGFP-CG32803-RA"	0.031155668902001867
"_281__Without\_Prot_"	6294000	147015	"F06"	"nan"	0	8	0	1	1	6	6	"Without_Prot"	800	"pUbiP-eGFP-CG32803-RA"	0.023357959961868447
"_282__With\_Prot_"	10460513	344542	"F06"	"nan"	0	8	0	2	1	6	6	"With_Prot"	800	"pUbiP-eGFP-CG32803-RA"	0.032937390355520804
"_282__Without\_Prot_"	8263243	219598	"F06"	"nan"	0	8	0	2	1	6	6	"Without_Prot"	800	"pUbiP-eGFP-CG32803-RA"	0.026575280431665873
"_283__With\_Prot_"	11637094	391817	"F06"	"nan"	0	8	0	3	1	6	6	"With_Prot"	800	"pUbiP-eGFP-CG32803-RA"	0.03366966014023776
"_283__Without\_Prot_"	9433377	235415	"F06"	"nan"	0	8	0	3	1	6	6	"Without_Prot"	800	"pUbiP-eGFP-CG32803-RA"	0.024955538191678336
"_284__With\_Prot_"	9946538	358491	"F06"	"nan"	0	8	0	4	1	6	6	"With_Prot"	800	"pUbiP-eGFP-CG32803-RA"	0.036041786599518344
"_284__Without\_Prot_"	8280648	250117	"F06"	"nan"	0	8	0	4	1	6	6	"Without_Prot"	800	"pUbiP-eGFP-CG32803-RA"	0.030205003279936547
"_285__With\_Prot_"	11057012	373560	"F06"	"nan"	0	8	0	5	1	6	6	"With_Prot"	800	"pUbiP-eGFP-CG32803-RA"	0.03378489595561622
"_285__Without\_Prot_"	6374253	173425	"F06"	"nan"	0	8	0	5	1	6	6	"Without_Prot"	800	"pUbiP-eGFP-CG32803-RA"	0.027207109601705488
"_286__With\_Prot_"	10157033	323509	"F06"	"nan"	0	8	0	6	1	6	6	"With_Prot"	800	"pUbiP-eGFP-CG32803-RA"	0.03185073830123423
"_286__Without\_Prot_"	6178679	179469	"F06"	"nan"	0	8	0	6	1	6	6	"Without_Prot"	800	"pUbiP-eGFP-CG32803-RA"	0.0290465000690277
"_287__With\_Prot_"	10101597	336649	"F06"	"nan"	0	8	0	7	1	6	6	"With_Prot"	800	"pUbiP-eGFP-CG32803-RA"	0.03332631464114041
"_287__Without\_Prot_"	6291477	179692	"F06"	"nan"	0	8	0	7	1	6	6	"Without_Prot"	800	"pUbiP-eGFP-CG32803-RA"	0.028561178877392384
"_288__With\_Prot_"	9471296	308837	"F06"	"nan"	0	8	0	8	1	6	6	"With_Prot"	800	"pUbiP-eGFP-CG32803-RA"	0.03260768114522025
"_288__Without\_Prot_"	6929550	187508	"F06"	"nan"	0	8	0	8	1	6	6	"Without_Prot"	800	"pUbiP-eGFP-CG32803-RA"	0.027059188547596886
"_289__With\_Prot_"	8805437	326386	"F06"	"nan"	0	8	0	9	1	6	6	"With_Prot"	800	"pUbiP-eGFP-CG32803-RA"	0.037066417033021756
"_289__Without\_Prot_"	8391742	235352	"F06"	"nan"	0	8	0	9	1	6	6	"Without_Prot"	800	"pUbiP-eGFP-CG32803-RA"	0.028045666799575104
"_28__With\_Prot_"	7859467	123760	"B04"	"nan"	0	8	0	8	1	4	2	"With_Prot"	0	"pUbiP-CG32803-RA-eGFP"	0.01574661487859164
"_28__Without\_Prot_"	15558083	236500	"B04"	"nan"	0	8	0	8	1	4	2	"Without_Prot"	0	"pUbiP-CG32803-RA-eGFP"	0.015201101575303333
"_290__With\_Prot_"	9130018	365034	"F06"	"nan"	0	8	0	10	1	6	6	"With_Prot"	800	"pUbiP-eGFP-CG32803-RA"	0.039981739356921314
"_290__Without\_Prot_"	9451259	332329	"F06"	"nan"	0	8	0	10	1	6	6	"Without_Prot"	800	"pUbiP-eGFP-CG32803-RA"	0.03516240534726643
"_291__With\_Prot_"	5365454	184476	"F07"	"nan"	0	8	0	1	1	7	6	"With_Prot"	800	"pUbiP-eGFP-CG32803-RA"	0.034382179029025316
"_291__Without\_Prot_"	8299188	243702	"F07"	"nan"	0	8	0	1	1	7	6	"Without_Prot"	800	"pUbiP-eGFP-CG32803-RA"	0.029364559520762754
"_292__With\_Prot_"	8294068	248181	"F07"	"nan"	0	8	0	2	1	7	6	"With_Prot"	800	"pUbiP-eGFP-CG32803-RA"	0.02992271102672416
"_292__Without\_Prot_"	10366116	254452	"F07"	"nan"	0	8	0	2	1	7	6	"Without_Prot"	800	"pUbiP-eGFP-CG32803-RA"	0.02454651288872322
"_293__With\_Prot_"	11014533	332649	"F07"	"nan"	0	8	0	3	1	7	6	"With_Prot"	800	"pUbiP-eGFP-CG32803-RA"	0.03020091727901673
"_293__Without\_Prot_"	9519414	263836	"F07"	"nan"	0	8	0	3	1	7	6	"Without_Prot"	800	"pUbiP-eGFP-CG32803-RA"	0.02771557156774566
"_294__With\_Prot_"	6420199	172601	"F07"	"nan"	0	8	0	4	1	7	6	"With_Prot"	800	"pUbiP-eGFP-CG32803-RA"	0.026884057643696092
"_294__Without\_Prot_"	8628241	244063	"F07"	"nan"	0	8	0	4	1	7	6	"Without_Prot"	800	"pUbiP-eGFP-CG32803-RA"	0.028286530244113487
"_295__With\_Prot_"	968746	24027	"F07"	"nan"	0	8	0	5	1	7	6	"With_Prot"	800	"pUbiP-eGFP-CG32803-RA"	0.024802166925076335
"_295__Without\_Prot_"	2634611	72480	"F07"	"nan"	0	8	0	5	1	7	6	"Without_Prot"	800	"pUbiP-eGFP-CG32803-RA"	0.027510702718541752
"_296__With\_Prot_"	5494637	163229	"F07"	"nan"	0	8	0	6	1	7	6	"With_Prot"	800	"pUbiP-eGFP-CG32803-RA"	0.029706966993451978
"_296__Without\_Prot_"	7022573	190452	"F07"	"nan"	0	8	0	6	1	7	6	"Without_Prot"	800	"pUbiP-eGFP-CG32803-RA"	0.027119974402544482
"_297__With\_Prot_"	3830905	111390	"F07"	"nan"	0	8	0	7	1	7	6	"With_Prot"	800	"pUbiP-eGFP-CG32803-RA"	0.02907668031444267
"_297__Without\_Prot_"	8008750	224912	"F07"	"nan"	0	8	0	7	1	7	6	"Without_Prot"	800	"pUbiP-eGFP-CG32803-RA"	0.028083283908225377
"_298__With\_Prot_"	3318196	107977	"F07"	"nan"	0	8	0	8	1	7	6	"With_Prot"	800	"pUbiP-eGFP-CG32803-RA"	0.032540874619823544
"_298__Without\_Prot_"	5443212	154811	"F07"	"nan"	0	8	0	8	1	7	6	"Without_Prot"	800	"pUbiP-eGFP-CG32803-RA"	0.028441111608366532
"_299__With\_Prot_"	10707046	334434	"F07"	"nan"	0	8	0	9	1	7	6	"With_Prot"	800	"pUbiP-eGFP-CG32803-RA"	0.03123494566101612
"_299__Without\_Prot_"	8494451	231642	"F07"	"nan"	0	8	0	9	1	7	6	"Without_Prot"	800	"pUbiP-eGFP-CG32803-RA"	0.02726980236862865
"_29__With\_Prot_"	10743860	163270	"B04"	"nan"	0	8	0	9	1	4	2	"With_Prot"	0	"pUbiP-CG32803-RA-eGFP"	0.015196586701613758
"_29__Without\_Prot_"	16227522	245365	"B04"	"nan"	0	8	0	9	1	4	2	"Without_Prot"	0	"pUbiP-CG32803-RA-eGFP"	0.015120299944748188
"_2__With\_Prot_"	5333054	43405	"B02"	"nan"	0	8	0	2	1	2	2	"With_Prot"	0	"pUbiP-CG32803-RA-eGFP"	0.00813886377299011
"_2__Without\_Prot_"	12257147	125379	"B02"	"nan"	0	8	0	2	1	2	2	"Without_Prot"	0	"pUbiP-CG32803-RA-eGFP"	0.010229052486683892
"_300__With\_Prot_"	10226039	314085	"F07"	"nan"	0	8	0	10	1	7	6	"With_Prot"	800	"pUbiP-eGFP-CG32803-RA"	0.0307142384260416
"_300__Without\_Prot_"	6684532	168047	"F07"	"nan"	0	8	0	10	1	7	6	"Without_Prot"	800	"pUbiP-eGFP-CG32803-RA"	0.02513968068370381
"_30__With\_Prot_"	10038266	158123	"B04"	"nan"	0	8	0	10	1	4	2	"With_Prot"	0	"pUbiP-CG32803-RA-eGFP"	0.015752023307611097
"_30__Without\_Prot_"	14130626	236206	"B04"	"nan"	0	8	0	10	1	4	2	"Without_Prot"	0	"pUbiP-CG32803-RA-eGFP"	0.01671589071850037
"_31__With\_Prot_"	10304628	137943	"B05"	"nan"	0	8	0	1	1	5	2	"With_Prot"	0	"pUbiP-eGFP-CG32803-RA"	0.013386509440224334
"_31__Without\_Prot_"	12387518	195805	"B05"	"nan"	0	8	0	1	1	5	2	"Without_Prot"	0	"pUbiP-eGFP-CG32803-RA"	0.015806636971183414
"_32__With\_Prot_"	9000403	136449	"B05"	"nan"	0	8	0	2	1	5	2	"With_Prot"	0	"pUbiP-eGFP-CG32803-RA"	0.015160321154508303
"_32__Without\_Prot_"	7493656	110463	"B05"	"nan"	0	8	0	2	1	5	2	"Without_Prot"	0	"pUbiP-eGFP-CG32803-RA"	0.014740868809563717
"_33__With\_Prot_"	13016570	216002	"B05"	"nan"	0	8	0	3	1	5	2	"With_Prot"	0	"pUbiP-eGFP-CG32803-RA"	0.016594387000569276
"_33__Without\_Prot_"	9813431	137723	"B05"	"nan"	0	8	0	3	1	5	2	"Without_Prot"	0	"pUbiP-eGFP-CG32803-RA"	0.01403413342387591
"_34__With\_Prot_"	4871613	78991	"B05"	"nan"	0	8	0	4	1	5	2	"With_Prot"	0	"pUbiP-eGFP-CG32803-RA"	0.01621454741992026
"_34__Without\_Prot_"	7126149	111741	"B05"	"nan"	0	8	0	4	1	5	2	"Without_Prot"	0	"pUbiP-eGFP-CG32803-RA"	0.015680418694585252
"_35__With\_Prot_"	1683046	25829	"B05"	"nan"	0	8	0	5	1	5	2	"With_Prot"	0	"pUbiP-eGFP-CG32803-RA"	0.015346579950874783
"_35__Without\_Prot_"	1731091	37866	"B05"	"nan"	0	8	0	5	1	5	2	"Without_Prot"	0	"pUbiP-eGFP-CG32803-RA"	0.02187406670128838
"_36__With\_Prot_"	3905330	52669	"B05"	"nan"	0	8	0	6	1	5	2	"With_Prot"	0	"pUbiP-eGFP-CG32803-RA"	0.01348644032642568
"_36__Without\_Prot_"	4415793	67606	"B05"	"nan"	0	8	0	6	1	5	2	"Without_Prot"	0	"pUbiP-eGFP-CG32803-RA"	0.015310047368615331
"_37__With\_Prot_"	5695226	84647	"B05"	"nan"	0	8	0	7	1	5	2	"With_Prot"	0	"pUbiP-eGFP-CG32803-RA"	0.014862799123335931
"_37__Without\_Prot_"	7507933	116790	"B05"	"nan"	0	8	0	7	1	5	2	"Without_Prot"	0	"pUbiP-eGFP-CG32803-RA"	0.015555546380075582
"_38__With\_Prot_"	7070783	100485	"B05"	"nan"	0	8	0	8	1	5	2	"With_Prot"	0	"pUbiP-eGFP-CG32803-RA"	0.014211297390967874
"_38__Without\_Prot_"	6091623	99749	"B05"	"nan"	0	8	0	8	1	5	2	"Without_Prot"	0	"pUbiP-eGFP-CG32803-RA"	0.016374782221421122
"_39__With\_Prot_"	9190261	126435	"B05"	"nan"	0	8	0	9	1	5	2	"With_Prot"	0	"pUbiP-eGFP-CG32803-RA"	0.013757498290853763
"_39__Without\_Prot_"	6060405	91074	"B05"	"nan"	0	8	0	9	1	5	2	"Without_Prot"	0	"pUbiP-eGFP-CG32803-RA"	0.015027708544230954
"_3__With\_Prot_"	5327833	52592	"B02"	"nan"	0	8	0	3	1	2	2	"With_Prot"	0	"pUbiP-CG32803-RA-eGFP"	0.009871180271603858
"_3__Without\_Prot_"	17641458	179812	"B02"	"nan"	0	8	0	3	1	2	2	"Without_Prot"	0	"pUbiP-CG32803-RA-eGFP"	0.010192581588211133
"_40__With\_Prot_"	10311337	160587	"B05"	"nan"	0	8	0	10	1	5	2	"With_Prot"	0	"pUbiP-eGFP-CG32803-RA"	0.015573829077645315
"_40__Without\_Prot_"	7270512	105631	"B05"	"nan"	0	8	0	10	1	5	2	"Without_Prot"	0	"pUbiP-eGFP-CG32803-RA"	0.014528687938346021
"_41__With\_Prot_"	866450	14080	"B06"	"nan"	0	8	0	1	1	6	2	"With_Prot"	0	"pUbiP-eGFP-CG32803-RA"	0.01625021640025391
"_41__Without\_Prot_"	4319322	82078	"B06"	"nan"	0	8	0	1	1	6	2	"Without_Prot"	0	"pUbiP-eGFP-CG32803-RA"	0.019002519376883686
"_42__With\_Prot_"	14979902	232294	"B06"	"nan"	0	8	0	2	1	6	2	"With_Prot"	0	"pUbiP-eGFP-CG32803-RA"	0.01550704403807181
"_42__Without\_Prot_"	9520145	144801	"B06"	"nan"	0	8	0	2	1	6	2	"Without_Prot"	0	"pUbiP-eGFP-CG32803-RA"	0.015209957411362957
"_43__With\_Prot_"	13630873	207713	"B06"	"nan"	0	8	0	3	1	6	2	"With_Prot"	0	"pUbiP-eGFP-CG32803-RA"	0.015238422366637852
"_43__Without\_Prot_"	11175536	159805	"B06"	"nan"	0	8	0	3	1	6	2	"Without_Prot"	0	"pUbiP-eGFP-CG32803-RA"	0.014299537847670124
"_44__With\_Prot_"	7476583	121062	"B06"	"nan"	0	8	0	4	1	6	2	"With_Prot"	0	"pUbiP-eGFP-CG32803-RA"	0.016192156229657317
"_44__Without\_Prot_"	13462471	207697	"B06"	"nan"	0	8	0	4	1	6	2	"Without_Prot"	0	"pUbiP-eGFP-CG32803-RA"	0.015427851246624784
"_45__With\_Prot_"	480197	12073	"B06"	"nan"	0	8	0	5	1	6	2	"With_Prot"	0	"pUbiP-eGFP-CG32803-RA"	0.025141764734057066
"_45__Without\_Prot_"	2457340	39652	"B06"	"nan"	0	8	0	5	1	6	2	"Without_Prot"	0	"pUbiP-eGFP-CG32803-RA"	0.016136147216095454
"_46__With\_Prot_"	8947647	145227	"B06"	"nan"	0	8	0	6	1	6	2	"With_Prot"	0	"pUbiP-eGFP-CG32803-RA"	0.016230747592076444
"_46__Without\_Prot_"	11397587	197707	"B06"	"nan"	0	8	0	6	1	6	2	"Without_Prot"	0	"pUbiP-eGFP-CG32803-RA"	0.01734639095099691
"_47__With\_Prot_"	8518413	126959	"B06"	"nan"	0	8	0	7	1	6	2	"With_Prot"	0	"pUbiP-eGFP-CG32803-RA"	0.014904067224728363
"_47__Without\_Prot_"	12989716	208363	"B06"	"nan"	0	8	0	7	1	6	2	"Without_Prot"	0	"pUbiP-eGFP-CG32803-RA"	0.016040612435252625
"_48__With\_Prot_"	15843121	237729	"B06"	"nan"	0	8	0	8	1	6	2	"With_Prot"	0	"pUbiP-eGFP-CG32803-RA"	0.015005187424876701
"_48__Without\_Prot_"	9226337	140870	"B06"	"nan"	0	8	0	8	1	6	2	"Without_Prot"	0	"pUbiP-eGFP-CG32803-RA"	0.015268247843103933
"_49__With\_Prot_"	11861757	188250	"B06"	"nan"	0	8	0	9	1	6	2	"With_Prot"	0	"pUbiP-eGFP-CG32803-RA"	0.01587033017115424
"_49__Without\_Prot_"	11457722	175028	"B06"	"nan"	0	8	0	9	1	6	2	"Without_Prot"	0	"pUbiP-eGFP-CG32803-RA"	0.015275985924601766
"_4__With\_Prot_"	5472133	34679	"B02"	"nan"	0	8	0	4	1	2	2	"With_Prot"	0	"pUbiP-CG32803-RA-eGFP"	0.00633738251610478
"_4__Without\_Prot_"	10102295	96087	"B02"	"nan"	0	8	0	4	1	2	2	"Without_Prot"	0	"pUbiP-CG32803-RA-eGFP"	0.009511403101968414
"_50__With\_Prot_"	11466183	211861	"B06"	"nan"	0	8	0	10	1	6	2	"With_Prot"	0	"pUbiP-eGFP-CG32803-RA"	0.018477029365395616
"_50__Without\_Prot_"	11107457	177647	"B06"	"nan"	0	8	0	10	1	6	2	"Without_Prot"	0	"pUbiP-eGFP-CG32803-RA"	0.015993489778983613
"_51__With\_Prot_"	10521337	113202	"B07"	"nan"	0	8	0	1	1	7	2	"With_Prot"	0	"pUbiP-eGFP-CG32803-RA"	0.010759278977567205
"_51__Without\_Prot_"	14515961	162444	"B07"	"nan"	0	8	0	1	1	7	2	"Without_Prot"	0	"pUbiP-eGFP-CG32803-RA"	0.01119071620542381
"_52__With\_Prot_"	11044254	116797	"B07"	"nan"	0	8	0	2	1	7	2	"With_Prot"	0	"pUbiP-eGFP-CG32803-RA"	0.010575363442383705
"_52__Without\_Prot_"	8829844	102121	"B07"	"nan"	0	8	0	2	1	7	2	"Without_Prot"	0	"pUbiP-eGFP-CG32803-RA"	0.011565436490157698
"_53__With\_Prot_"	11542828	106847	"B07"	"nan"	0	8	0	3	1	7	2	"With_Prot"	0	"pUbiP-eGFP-CG32803-RA"	0.009256570400252
"_53__Without\_Prot_"	13415596	144657	"B07"	"nan"	0	8	0	3	1	7	2	"Without_Prot"	0	"pUbiP-eGFP-CG32803-RA"	0.010782748675496787
"_54__With\_Prot_"	15190227	161148	"B07"	"nan"	0	8	0	4	1	7	2	"With_Prot"	0	"pUbiP-eGFP-CG32803-RA"	0.010608663056845694
"_54__Without\_Prot_"	11300482	145153	"B07"	"nan"	0	8	0	4	1	7	2	"Without_Prot"	0	"pUbiP-eGFP-CG32803-RA"	0.012844850334702538
"_55__With\_Prot_"	4727066	55154	"B07"	"nan"	0	8	0	5	1	7	2	"With_Prot"	0	"pUbiP-eGFP-CG32803-RA"	0.01166770254529977
"_55__Without\_Prot_"	9468311	144575	"B07"	"nan"	0	8	0	5	1	7	2	"Without_Prot"	0	"pUbiP-eGFP-CG32803-RA"	0.015269354798337317
"_56__With\_Prot_"	2852742	37560	"B07"	"nan"	0	8	0	6	1	7	2	"With_Prot"	0	"pUbiP-eGFP-CG32803-RA"	0.013166280021116526
"_56__Without\_Prot_"	8720560	114885	"B07"	"nan"	0	8	0	6	1	7	2	"Without_Prot"	0	"pUbiP-eGFP-CG32803-RA"	0.01317403928188098
"_57__With\_Prot_"	1779571	25363	"B07"	"nan"	0	8	0	7	1	7	2	"With_Prot"	0	"pUbiP-eGFP-CG32803-RA"	0.014252311371673286
"_57__Without\_Prot_"	7482232	105232	"B07"	"nan"	0	8	0	7	1	7	2	"Without_Prot"	0	"pUbiP-eGFP-CG32803-RA"	0.014064252485087338
"_58__With\_Prot_"	7674282	86842	"B07"	"nan"	0	8	0	8	1	7	2	"With_Prot"	0	"pUbiP-eGFP-CG32803-RA"	0.011315977181969597
"_58__Without\_Prot_"	11651910	131579	"B07"	"nan"	0	8	0	8	1	7	2	"Without_Prot"	0	"pUbiP-eGFP-CG32803-RA"	0.01129248337826159
"_59__With\_Prot_"	7841979	95997	"B07"	"nan"	0	8	0	9	1	7	2	"With_Prot"	0	"pUbiP-eGFP-CG32803-RA"	0.012241425283082242
"_59__Without\_Prot_"	10538502	145851	"B07"	"nan"	0	8	0	9	1	7	2	"Without_Prot"	0	"pUbiP-eGFP-CG32803-RA"	0.01383982277557095
"_5__With\_Prot_"	3649451	29556	"B02"	"nan"	0	8	0	5	1	2	2	"With_Prot"	0	"pUbiP-CG32803-RA-eGFP"	0.008098752387687902
"_5__Without\_Prot_"	13979229	146725	"B02"	"nan"	0	8	0	5	1	2	2	"Without_Prot"	0	"pUbiP-CG32803-RA-eGFP"	0.010495929353471496
"_60__With\_Prot_"	11275192	111066	"B07"	"nan"	0	8	0	10	1	7	2	"With_Prot"	0	"pUbiP-eGFP-CG32803-RA"	0.009850475273503103
"_60__Without\_Prot_"	10778169	147744	"B07"	"nan"	0	8	0	10	1	7	2	"Without_Prot"	0	"pUbiP-eGFP-CG32803-RA"	0.01370770860987613
"_61__With\_Prot_"	9255512	109232	"C02"	"nan"	0	8	0	1	1	2	3	"With_Prot"	200	"pUbiP-CG32803-RA-eGFP"	0.011801832248718386
"_61__Without\_Prot_"	19590884	256504	"C02"	"nan"	0	8	0	1	1	2	3	"Without_Prot"	200	"pUbiP-CG32803-RA-eGFP"	0.013093028369725429
"_62__With\_Prot_"	9876791	122636	"C02"	"nan"	0	8	0	2	1	2	3	"With_Prot"	200	"pUbiP-CG32803-RA-eGFP"	0.01241658348344113
"_62__Without\_Prot_"	17400114	210433	"C02"	"nan"	0	8	0	2	1	2	3	"Without_Prot"	200	"pUbiP-CG32803-RA-eGFP"	0.012093771339659038
"_63__With\_Prot_"	7243374	95709	"C02"	"nan"	0	8	0	3	1	2	3	"With_Prot"	200	"pUbiP-CG32803-RA-eGFP"	0.013213317440187404
"_63__Without\_Prot_"	17087913	216528	"C02"	"nan"	0	8	0	3	1	2	3	"Without_Prot"	200	"pUbiP-CG32803-RA-eGFP"	0.012671412828471212
"_64__With\_Prot_"	6278054	77853	"C02"	"nan"	0	8	0	4	1	2	3	"With_Prot"	200	"pUbiP-CG32803-RA-eGFP"	0.012400817195901788
"_64__Without\_Prot_"	18622138	250686	"C02"	"nan"	0	8	0	4	1	2	3	"Without_Prot"	200	"pUbiP-CG32803-RA-eGFP"	0.013461719594173343
"_65__With\_Prot_"	2790859	33144	"C02"	"nan"	0	8	0	5	1	2	3	"With_Prot"	200	"pUbiP-CG32803-RA-eGFP"	0.011875913473235302
"_65__Without\_Prot_"	12440590	168278	"C02"	"nan"	0	8	0	5	1	2	3	"Without_Prot"	200	"pUbiP-CG32803-RA-eGFP"	0.013526528886491718
"_66__With\_Prot_"	2198118	30630	"C02"	"nan"	0	8	0	6	1	2	3	"With_Prot"	200	"pUbiP-CG32803-RA-eGFP"	0.01393464773046761
"_66__Without\_Prot_"	15463184	228595	"C02"	"nan"	0	8	0	6	1	2	3	"Without_Prot"	200	"pUbiP-CG32803-RA-eGFP"	0.014783177901782713
"_67__With\_Prot_"	3505673	53589	"C02"	"nan"	0	8	0	7	1	2	3	"With_Prot"	200	"pUbiP-CG32803-RA-eGFP"	0.015286365841879718
"_67__Without\_Prot_"	18037721	274296	"C02"	"nan"	0	8	0	7	1	2	3	"Without_Prot"	200	"pUbiP-CG32803-RA-eGFP"	0.015206799129446563
"_68__With\_Prot_"	8010799	104840	"C02"	"nan"	0	8	0	8	1	2	3	"With_Prot"	200	"pUbiP-CG32803-RA-eGFP"	0.013087333735373963
"_68__Without\_Prot_"	20389534	269653	"C02"	"nan"	0	8	0	8	1	2	3	"Without_Prot"	200	"pUbiP-CG32803-RA-eGFP"	0.013225069292902918
"_69__With\_Prot_"	9374182	123873	"C02"	"nan"	0	8	0	9	1	2	3	"With_Prot"	200	"pUbiP-CG32803-RA-eGFP"	0.013214272989365899
"_69__Without\_Prot_"	18123704	256596	"C02"	"nan"	0	8	0	9	1	2	3	"Without_Prot"	200	"pUbiP-CG32803-RA-eGFP"	0.014158033037838181
"_6__With\_Prot_"	4524625	40873	"B02"	"nan"	0	8	0	6	1	2	2	"With_Prot"	0	"pUbiP-CG32803-RA-eGFP"	0.009033455811255076
"_6__Without\_Prot_"	12227567	122206	"B02"	"nan"	0	8	0	6	1	2	2	"Without_Prot"	0	"pUbiP-CG32803-RA-eGFP"	0.009994302218912397
"_70__With\_Prot_"	7621089	94934	"C02"	"nan"	0	8	0	10	1	2	3	"With_Prot"	200	"pUbiP-CG32803-RA-eGFP"	0.01245674994741565
"_70__Without\_Prot_"	20126727	299698	"C02"	"nan"	0	8	0	10	1	2	3	"Without_Prot"	200	"pUbiP-CG32803-RA-eGFP"	0.014890548274441244
"_71__With\_Prot_"	8858116	121659	"C03"	"nan"	0	8	0	1	1	3	3	"With_Prot"	200	"pUbiP-CG32803-RA-eGFP"	0.013734184560238318
"_71__Without\_Prot_"	16481262	232295	"C03"	"nan"	0	8	0	1	1	3	3	"Without_Prot"	200	"pUbiP-CG32803-RA-eGFP"	0.014094491065065284
"_72__With\_Prot_"	9287400	114374	"C03"	"nan"	0	8	0	2	1	3	3	"With_Prot"	200	"pUbiP-CG32803-RA-eGFP"	0.012314964360316127
"_72__Without\_Prot_"	19035533	277976	"C03"	"nan"	0	8	0	2	1	3	3	"Without_Prot"	200	"pUbiP-CG32803-RA-eGFP"	0.014603005862772531
"_73__With\_Prot_"	7616822	108534	"C03"	"nan"	0	8	0	3	1	3	3	"With_Prot"	200	"pUbiP-CG32803-RA-eGFP"	0.014249249884006741
"_73__Without\_Prot_"	17964108	232093	"C03"	"nan"	0	8	0	3	1	3	3	"Without_Prot"	200	"pUbiP-CG32803-RA-eGFP"	0.012919817671993511
"_74__With\_Prot_"	9146786	117698	"C03"	"nan"	0	8	0	4	1	3	3	"With_Prot"	200	"pUbiP-CG32803-RA-eGFP"	0.012867689262654664
"_74__Without\_Prot_"	18950630	258370	"C03"	"nan"	0	8	0	4	1	3	3	"Without_Prot"	200	"pUbiP-CG32803-RA-eGFP"	0.013633847529079509
"_75__With\_Prot_"	3056835	39547	"C03"	"nan"	0	8	0	5	1	3	3	"With_Prot"	200	"pUbiP-CG32803-RA-eGFP"	0.012937237371333421
"_75__Without\_Prot_"	17084394	252780	"C03"	"nan"	0	8	0	5	1	3	3	"Without_Prot"	200	"pUbiP-CG32803-RA-eGFP"	0.014795959400140269
"_76__With\_Prot_"	46951	1227	"C03"	"nan"	0	8	0	6	1	3	3	"With_Prot"	200	"pUbiP-CG32803-RA-eGFP"	0.026133628676705503
"_76__Without\_Prot_"	4452597	73346	"C03"	"nan"	0	8	0	6	1	3	3	"Without_Prot"	200	"pUbiP-CG32803-RA-eGFP"	0.01647263383593889
"_77__With\_Prot_"	157262	2204	"C03"	"nan"	0	8	0	7	1	3	3	"With_Prot"	200	"pUbiP-CG32803-RA-eGFP"	0.014014828757105977
"_77__Without\_Prot_"	2385631	44960	"C03"	"nan"	0	8	0	7	1	3	3	"Without_Prot"	200	"pUbiP-CG32803-RA-eGFP"	0.018846166905108125
"_78__With\_Prot_"	6765852	93811	"C03"	"nan"	0	8	0	8	1	3	3	"With_Prot"	200	"pUbiP-CG32803-RA-eGFP"	0.013865363889130298
"_78__Without\_Prot_"	19928713	284216	"C03"	"nan"	0	8	0	8	1	3	3	"Without_Prot"	200	"pUbiP-CG32803-RA-eGFP"	0.01426163345319891
"_79__With\_Prot_"	5690920	80973	"C03"	"nan"	0	8	0	9	1	3	3	"With_Prot"	200	"pUbiP-CG32803-RA-eGFP"	0.014228455153121112
"_79__Without\_Prot_"	18267538	284702	"C03"	"nan"	0	8	0	9	1	3	3	"Without_Prot"	200	"pUbiP-CG32803-RA-eGFP"	0.015585132490212967
"_7__With\_Prot_"	4097122	39621	"B02"	"nan"	0	8	0	7	1	2	2	"With_Prot"	0	"pUbiP-CG32803-RA-eGFP"	0.00967044671845261
"_7__Without\_Prot_"	15116587	174583	"B02"	"nan"	0	8	0	7	1	2	2	"Without_Prot"	0	"pUbiP-CG32803-RA-eGFP"	0.011549101658992205
"_80__With\_Prot_"	7781854	95842	"C03"	"nan"	0	8	0	10	1	3	3	"With_Prot"	200	"pUbiP-CG32803-RA-eGFP"	0.012316088171276407
"_80__Without\_Prot_"	20793567	325927	"C03"	"nan"	0	8	0	10	1	3	3	"Without_Prot"	200	"pUbiP-CG32803-RA-eGFP"	0.015674415072700128
"_82__Without\_Prot_"	34541	175	"C04"	"nan"	0	8	0	2	1	4	3	"Without_Prot"	200	"pUbiP-CG32803-RA-eGFP"	0.005066442778147709
"_8__With\_Prot_"	502952	7620	"B02"	"nan"	0	8	0	8	1	2	2	"With_Prot"	0	"pUbiP-CG32803-RA-eGFP"	0.015150551146033817
"_8__Without\_Prot_"	4377265	55388	"B02"	"nan"	0	8	0	8	1	2	2	"Without_Prot"	0	"pUbiP-CG32803-RA-eGFP"	0.012653563355200109
"_96__With\_Prot_"	7543	342	"C05"	"nan"	0	8	0	6	1	5	3	"With_Prot"	200	"pUbiP-eGFP-CG32803-RA"	0.04534005037783375
"_97__With\_Prot_"	6689	13	"C05"	"nan"	0	8	0	7	1	5	3	"With_Prot"	200	"pUbiP-eGFP-CG32803-RA"	0.0019434893108087904
"_9__With\_Prot_"	2975647	27602	"B02"	"nan"	0	8	0	9	1	2	2	"With_Prot"	0	"pUbiP-CG32803-RA-eGFP"	0.00927596586557478
"_9__Without\_Prot_"	14947601	170664	"B02"	"nan"	0	8	0	9	1	2	2	"Without_Prot"	0	"pUbiP-CG32803-RA-eGFP"	0.011417484317383104
